ECE352_lab/Lab3/RawData/Kristen/352Lab1.csv

Model,DPO4034,DPO4034
Firmware Version,2.1,2.1
,,
Point Format,Y,Y
Horizontal Units,S,S
Horizontal Scale,0.0001,0.0001
Sample Interval,1.00E-07,1.00E-07
Record Length,10000,10000
Probe Attenuation,10,10
Vertical Units,V,V
Vertical Offset,0,0
Vertical Scale,0.1,1
Label,,
TIME,CH1,CH2
-5.00E-04,-0.716,-0.7
-5.00E-04,-0.716,-0.62
-5.00E-04,-0.7,-0.62
-5.00E-04,-0.704,-0.66
-5.00E-04,-0.708,-0.66
-5.00E-04,-0.7,-0.66
-4.99E-04,-0.7,-0.58
-4.99E-04,-0.704,-0.62
-4.99E-04,-0.696,-0.66
-4.99E-04,-0.692,-0.66
-4.99E-04,-0.696,-0.58
-4.99E-04,-0.704,-0.62
-4.99E-04,-0.692,-0.66
-4.99E-04,-0.688,-0.62
-4.99E-04,-0.692,-0.54
-4.99E-04,-0.684,-0.58
-4.98E-04,-0.688,-0.58
-4.98E-04,-0.684,-0.58
-4.98E-04,-0.676,-0.66
-4.98E-04,-0.68,-0.7
-4.98E-04,-0.672,-0.62
-4.98E-04,-0.676,-0.62
-4.98E-04,-0.676,-0.62
-4.98E-04,-0.656,-0.66
-4.98E-04,-0.672,-0.46
-4.98E-04,-0.664,-0.58
-4.97E-04,-0.66,-0.5
-4.97E-04,-0.668,-0.66
-4.97E-04,-0.664,-0.58
-4.97E-04,-0.656,-0.58
-4.97E-04,-0.668,-0.7
-4.97E-04,-0.668,-0.62
-4.97E-04,-0.66,-0.66
-4.97E-04,-0.656,-0.66
-4.97E-04,-0.664,-0.66
-4.97E-04,-0.664,-0.5
-4.96E-04,-0.656,-0.62
-4.96E-04,-0.656,-0.66
-4.96E-04,-0.648,-0.54
-4.96E-04,-0.644,-0.54
-4.96E-04,-0.652,-0.62
-4.96E-04,-0.644,-0.5
-4.96E-04,-0.648,-0.54
-4.96E-04,-0.64,-0.5
-4.96E-04,-0.652,-0.62
-4.96E-04,-0.648,-0.54
-4.95E-04,-0.64,-0.54
-4.95E-04,-0.64,-0.5
-4.95E-04,-0.632,-0.66
-4.95E-04,-0.636,-0.54
-4.95E-04,-0.632,-0.54
-4.95E-04,-0.632,-0.58
-4.95E-04,-0.628,-0.54
-4.95E-04,-0.62,-0.58
-4.95E-04,-0.616,-0.62
-4.95E-04,-0.62,-0.54
-4.94E-04,-0.624,-0.5
-4.94E-04,-0.62,-0.58
-4.94E-04,-0.62,-0.5
-4.94E-04,-0.62,-0.62
-4.94E-04,-0.6,-0.54
-4.94E-04,-0.608,-0.54
-4.94E-04,-0.6,-0.5
-4.94E-04,-0.62,-0.54
-4.94E-04,-0.604,-0.5
-4.94E-04,-0.608,-0.54
-4.93E-04,-0.608,-0.58
-4.93E-04,-0.612,-0.5
-4.93E-04,-0.608,-0.54
-4.93E-04,-0.604,-0.54
-4.93E-04,-0.596,-0.54
-4.93E-04,-0.608,-0.54
-4.93E-04,-0.6,-0.5
-4.93E-04,-0.604,-0.54
-4.93E-04,-0.592,-0.5
-4.93E-04,-0.592,-0.5
-4.92E-04,-0.592,-0.58
-4.92E-04,-0.58,-0.5
-4.92E-04,-0.584,-0.5
-4.92E-04,-0.588,-0.54
-4.92E-04,-0.584,-0.54
-4.92E-04,-0.592,-0.5
-4.92E-04,-0.584,-0.5
-4.92E-04,-0.584,-0.54
-4.92E-04,-0.572,-0.42
-4.92E-04,-0.576,-0.54
-4.91E-04,-0.568,-0.5
-4.91E-04,-0.576,-0.54
-4.91E-04,-0.572,-0.5
-4.91E-04,-0.576,-0.58
-4.91E-04,-0.568,-0.5
-4.91E-04,-0.56,-0.5
-4.91E-04,-0.56,-0.42
-4.91E-04,-0.564,-0.54
-4.91E-04,-0.568,-0.42
-4.91E-04,-0.564,-0.5
-4.90E-04,-0.568,-0.5
-4.90E-04,-0.568,-0.46
-4.90E-04,-0.552,-0.46
-4.90E-04,-0.56,-0.5
-4.90E-04,-0.564,-0.54
-4.90E-04,-0.556,-0.5
-4.90E-04,-0.56,-0.5
-4.90E-04,-0.552,-0.42
-4.90E-04,-0.548,-0.54
-4.90E-04,-0.54,-0.5
-4.89E-04,-0.556,-0.58
-4.89E-04,-0.544,-0.54
-4.89E-04,-0.54,-0.5
-4.89E-04,-0.544,-0.46
-4.89E-04,-0.544,-0.38
-4.89E-04,-0.536,-0.5
-4.89E-04,-0.54,-0.54
-4.89E-04,-0.532,-0.5
-4.89E-04,-0.54,-0.42
-4.89E-04,-0.536,-0.5
-4.88E-04,-0.528,-0.46
-4.88E-04,-0.532,-0.5
-4.88E-04,-0.524,-0.5
-4.88E-04,-0.528,-0.38
-4.88E-04,-0.524,-0.42
-4.88E-04,-0.528,-0.5
-4.88E-04,-0.512,-0.46
-4.88E-04,-0.524,-0.5
-4.88E-04,-0.536,-0.46
-4.88E-04,-0.52,-0.42
-4.87E-04,-0.524,-0.5
-4.87E-04,-0.512,-0.5
-4.87E-04,-0.516,-0.42
-4.87E-04,-0.508,-0.46
-4.87E-04,-0.508,-0.5
-4.87E-04,-0.508,-0.42
-4.87E-04,-0.504,-0.42
-4.87E-04,-0.508,-0.46
-4.87E-04,-0.504,-0.42
-4.87E-04,-0.496,-0.42
-4.86E-04,-0.492,-0.42
-4.86E-04,-0.504,-0.42
-4.86E-04,-0.492,-0.46
-4.86E-04,-0.496,-0.42
-4.86E-04,-0.484,-0.54
-4.86E-04,-0.492,-0.38
-4.86E-04,-0.488,-0.5
-4.86E-04,-0.492,-0.42
-4.86E-04,-0.484,-0.38
-4.86E-04,-0.488,-0.46
-4.85E-04,-0.484,-0.38
-4.85E-04,-0.476,-0.5
-4.85E-04,-0.48,-0.42
-4.85E-04,-0.476,-0.38
-4.85E-04,-0.484,-0.46
-4.85E-04,-0.476,-0.38
-4.85E-04,-0.472,-0.38
-4.85E-04,-0.48,-0.5
-4.85E-04,-0.472,-0.42
-4.85E-04,-0.468,-0.38
-4.84E-04,-0.464,-0.42
-4.84E-04,-0.468,-0.46
-4.84E-04,-0.46,-0.38
-4.84E-04,-0.46,-0.46
-4.84E-04,-0.456,-0.34
-4.84E-04,-0.472,-0.42
-4.84E-04,-0.464,-0.38
-4.84E-04,-0.456,-0.46
-4.84E-04,-0.46,-0.34
-4.84E-04,-0.452,-0.38
-4.83E-04,-0.452,-0.42
-4.83E-04,-0.448,-0.34
-4.83E-04,-0.448,-0.38
-4.83E-04,-0.44,-0.46
-4.83E-04,-0.44,-0.42
-4.83E-04,-0.456,-0.46
-4.83E-04,-0.46,-0.46
-4.83E-04,-0.448,-0.42
-4.83E-04,-0.444,-0.34
-4.83E-04,-0.436,-0.34
-4.82E-04,-0.436,-0.34
-4.82E-04,-0.432,-0.38
-4.82E-04,-0.428,-0.38
-4.82E-04,-0.436,-0.34
-4.82E-04,-0.424,-0.34
-4.82E-04,-0.428,-0.34
-4.82E-04,-0.42,-0.38
-4.82E-04,-0.428,-0.38
-4.82E-04,-0.428,-0.38
-4.82E-04,-0.424,-0.3
-4.81E-04,-0.424,-0.34
-4.81E-04,-0.416,-0.38
-4.81E-04,-0.416,-0.38
-4.81E-04,-0.408,-0.26
-4.81E-04,-0.408,-0.38
-4.81E-04,-0.408,-0.38
-4.81E-04,-0.416,-0.38
-4.81E-04,-0.4,-0.38
-4.81E-04,-0.404,-0.38
-4.81E-04,-0.404,-0.34
-4.80E-04,-0.416,-0.3
-4.80E-04,-0.408,-0.38
-4.80E-04,-0.412,-0.34
-4.80E-04,-0.396,-0.3
-4.80E-04,-0.392,-0.26
-4.80E-04,-0.384,-0.26
-4.80E-04,-0.396,-0.26
-4.80E-04,-0.4,-0.22
-4.80E-04,-0.384,-0.38
-4.80E-04,-0.388,-0.34
-4.79E-04,-0.4,-0.34
-4.79E-04,-0.396,-0.34
-4.79E-04,-0.388,-0.34
-4.79E-04,-0.388,-0.34
-4.79E-04,-0.372,-0.34
-4.79E-04,-0.38,-0.46
-4.79E-04,-0.38,-0.34
-4.79E-04,-0.376,-0.26
-4.79E-04,-0.376,-0.3
-4.79E-04,-0.376,-0.22
-4.78E-04,-0.364,-0.3
-4.78E-04,-0.364,-0.34
-4.78E-04,-0.368,-0.22
-4.78E-04,-0.368,-0.34
-4.78E-04,-0.368,-0.3
-4.78E-04,-0.368,-0.38
-4.78E-04,-0.364,-0.22
-4.78E-04,-0.352,-0.26
-4.78E-04,-0.364,-0.38
-4.78E-04,-0.364,-0.3
-4.77E-04,-0.36,-0.22
-4.77E-04,-0.352,-0.3
-4.77E-04,-0.348,-0.3
-4.77E-04,-0.348,-0.18
-4.77E-04,-0.348,-0.3
-4.77E-04,-0.348,-0.22
-4.77E-04,-0.352,-0.26
-4.77E-04,-0.344,-0.18
-4.77E-04,-0.36,-0.26
-4.77E-04,-0.352,-0.26
-4.76E-04,-0.348,-0.22
-4.76E-04,-0.344,-0.26
-4.76E-04,-0.34,-0.26
-4.76E-04,-0.344,-0.3
-4.76E-04,-0.332,-0.26
-4.76E-04,-0.332,-0.3
-4.76E-04,-0.332,-0.26
-4.76E-04,-0.332,-0.22
-4.76E-04,-0.332,-0.34
-4.76E-04,-0.332,-0.22
-4.75E-04,-0.324,-0.26
-4.75E-04,-0.328,-0.3
-4.75E-04,-0.324,-0.3
-4.75E-04,-0.328,-0.26
-4.75E-04,-0.32,-0.26
-4.75E-04,-0.32,-0.18
-4.75E-04,-0.316,-0.3
-4.75E-04,-0.316,-0.26
-4.75E-04,-0.312,-0.3
-4.75E-04,-0.3,-0.34
-4.74E-04,-0.312,-0.22
-4.74E-04,-0.308,-0.26
-4.74E-04,-0.308,-0.26
-4.74E-04,-0.3,-0.22
-4.74E-04,-0.312,-0.18
-4.74E-04,-0.308,-0.26
-4.74E-04,-0.304,-0.26
-4.74E-04,-0.304,-0.22
-4.74E-04,-0.296,-0.26
-4.74E-04,-0.3,-0.3
-4.73E-04,-0.312,-0.3
-4.73E-04,-0.292,-0.26
-4.73E-04,-0.288,-0.22
-4.73E-04,-0.296,-0.26
-4.73E-04,-0.292,-0.22
-4.73E-04,-0.288,-0.34
-4.73E-04,-0.28,-0.22
-4.73E-04,-0.292,-0.14
-4.73E-04,-0.284,-0.22
-4.73E-04,-0.284,-0.14
-4.72E-04,-0.28,-0.22
-4.72E-04,-0.276,-0.14
-4.72E-04,-0.284,-0.22
-4.72E-04,-0.276,-0.26
-4.72E-04,-0.276,-0.14
-4.72E-04,-0.276,-0.22
-4.72E-04,-0.28,-0.18
-4.72E-04,-0.28,-0.22
-4.72E-04,-0.264,-0.14
-4.72E-04,-0.26,-0.18
-4.71E-04,-0.272,-0.26
-4.71E-04,-0.256,-0.14
-4.71E-04,-0.26,-0.18
-4.71E-04,-0.26,-0.22
-4.71E-04,-0.264,-0.18
-4.71E-04,-0.268,-0.14
-4.71E-04,-0.252,-0.06
-4.71E-04,-0.252,-0.18
-4.71E-04,-0.252,-0.22
-4.71E-04,-0.26,-0.22
-4.70E-04,-0.244,-0.14
-4.70E-04,-0.252,-0.14
-4.70E-04,-0.248,-0.22
-4.70E-04,-0.252,-0.18
-4.70E-04,-0.236,-0.18
-4.70E-04,-0.236,-0.22
-4.70E-04,-0.236,-0.14
-4.70E-04,-0.236,-0.18
-4.70E-04,-0.236,-0.18
-4.70E-04,-0.228,-0.34
-4.69E-04,-0.236,-0.18
-4.69E-04,-0.236,-0.22
-4.69E-04,-0.228,-0.1
-4.69E-04,-0.228,-0.22
-4.69E-04,-0.224,-0.22
-4.69E-04,-0.224,-0.22
-4.69E-04,-0.224,-0.18
-4.69E-04,-0.22,-0.18
-4.69E-04,-0.224,-0.18
-4.69E-04,-0.22,-0.14
-4.68E-04,-0.224,-0.22
-4.68E-04,-0.216,-0.14
-4.68E-04,-0.216,-0.18
-4.68E-04,-0.216,-0.14
-4.68E-04,-0.208,-0.14
-4.68E-04,-0.208,-0.18
-4.68E-04,-0.204,-0.06
-4.68E-04,-0.208,-0.18
-4.68E-04,-0.208,-0.14
-4.68E-04,-0.208,-0.14
-4.67E-04,-0.204,-0.1
-4.67E-04,-0.2,-0.1
-4.67E-04,-0.204,-0.18
-4.67E-04,-0.204,-0.18
-4.67E-04,-0.204,-0.1
-4.67E-04,-0.192,-0.06
-4.67E-04,-0.192,-0.06
-4.67E-04,-0.196,-0.14
-4.67E-04,-0.184,-0.18
-4.67E-04,-0.18,-0.18
-4.66E-04,-0.184,-0.06
-4.66E-04,-0.188,-0.18
-4.66E-04,-0.188,-0.14
-4.66E-04,-0.184,-0.18
-4.66E-04,-0.184,-0.06
-4.66E-04,-0.2,-0.18
-4.66E-04,-0.192,-0.1
-4.66E-04,-0.204,-0.18
-4.66E-04,-0.204,-0.1
-4.66E-04,-0.196,-0.18
-4.65E-04,-0.204,-0.14
-4.65E-04,-0.208,-0.02
-4.65E-04,-0.212,-0.18
-4.65E-04,-0.208,-0.06
-4.65E-04,-0.204,-0.06
-4.65E-04,-0.204,-0.14
-4.65E-04,-0.208,-0.14
-4.65E-04,-0.22,-0.1
-4.65E-04,-0.216,-0.14
-4.65E-04,-0.216,-0.26
-4.64E-04,-0.22,-0.18
-4.64E-04,-0.216,-0.1
-4.64E-04,-0.232,-0.18
-4.64E-04,-0.216,-0.14
-4.64E-04,-0.232,-0.22
-4.64E-04,-0.232,-0.18
-4.64E-04,-0.224,-0.14
-4.64E-04,-0.22,-0.18
-4.64E-04,-0.224,-0.1
-4.64E-04,-0.236,-0.1
-4.63E-04,-0.236,-0.14
-4.63E-04,-0.244,-0.26
-4.63E-04,-0.232,-0.18
-4.63E-04,-0.248,-0.22
-4.63E-04,-0.24,-0.14
-4.63E-04,-0.244,-0.22
-4.63E-04,-0.244,-0.22
-4.63E-04,-0.248,-0.22
-4.63E-04,-0.248,-0.14
-4.63E-04,-0.256,-0.18
-4.62E-04,-0.26,-0.22
-4.62E-04,-0.252,-0.18
-4.62E-04,-0.256,-0.22
-4.62E-04,-0.264,-0.22
-4.62E-04,-0.252,-0.22
-4.62E-04,-0.248,-0.22
-4.62E-04,-0.268,-0.14
-4.62E-04,-0.264,-0.26
-4.62E-04,-0.276,-0.18
-4.62E-04,-0.264,-0.14
-4.61E-04,-0.26,-0.26
-4.61E-04,-0.264,-0.26
-4.61E-04,-0.268,-0.18
-4.61E-04,-0.284,-0.18
-4.61E-04,-0.28,-0.22
-4.61E-04,-0.28,-0.18
-4.61E-04,-0.28,-0.22
-4.61E-04,-0.288,-0.22
-4.61E-04,-0.284,-0.22
-4.61E-04,-0.288,-0.22
-4.60E-04,-0.28,-0.1
-4.60E-04,-0.288,-0.22
-4.60E-04,-0.292,-0.22
-4.60E-04,-0.3,-0.26
-4.60E-04,-0.304,-0.3
-4.60E-04,-0.296,-0.22
-4.60E-04,-0.288,-0.22
-4.60E-04,-0.288,-0.22
-4.60E-04,-0.3,-0.26
-4.60E-04,-0.296,-0.18
-4.59E-04,-0.3,-0.14
-4.59E-04,-0.3,-0.22
-4.59E-04,-0.3,-0.22
-4.59E-04,-0.304,-0.26
-4.59E-04,-0.308,-0.18
-4.59E-04,-0.308,-0.22
-4.59E-04,-0.316,-0.34
-4.59E-04,-0.312,-0.26
-4.59E-04,-0.308,-0.34
-4.59E-04,-0.316,-0.34
-4.58E-04,-0.316,-0.26
-4.58E-04,-0.324,-0.18
-4.58E-04,-0.316,-0.22
-4.58E-04,-0.328,-0.3
-4.58E-04,-0.32,-0.3
-4.58E-04,-0.324,-0.22
-4.58E-04,-0.332,-0.18
-4.58E-04,-0.324,-0.18
-4.58E-04,-0.328,-0.3
-4.58E-04,-0.32,-0.3
-4.57E-04,-0.336,-0.22
-4.57E-04,-0.34,-0.22
-4.57E-04,-0.34,-0.22
-4.57E-04,-0.344,-0.22
-4.57E-04,-0.34,-0.22
-4.57E-04,-0.348,-0.22
-4.57E-04,-0.344,-0.22
-4.57E-04,-0.344,-0.26
-4.57E-04,-0.344,-0.18
-4.57E-04,-0.348,-0.22
-4.56E-04,-0.356,-0.34
-4.56E-04,-0.352,-0.18
-4.56E-04,-0.344,-0.3
-4.56E-04,-0.356,-0.3
-4.56E-04,-0.352,-0.3
-4.56E-04,-0.364,-0.22
-4.56E-04,-0.356,-0.26
-4.56E-04,-0.348,-0.18
-4.56E-04,-0.368,-0.22
-4.56E-04,-0.36,-0.34
-4.55E-04,-0.36,-0.26
-4.55E-04,-0.368,-0.26
-4.55E-04,-0.36,-0.34
-4.55E-04,-0.368,-0.26
-4.55E-04,-0.372,-0.42
-4.55E-04,-0.364,-0.34
-4.55E-04,-0.376,-0.3
-4.55E-04,-0.372,-0.22
-4.55E-04,-0.38,-0.34
-4.55E-04,-0.384,-0.26
-4.54E-04,-0.384,-0.26
-4.54E-04,-0.384,-0.3
-4.54E-04,-0.388,-0.38
-4.54E-04,-0.38,-0.34
-4.54E-04,-0.388,-0.3
-4.54E-04,-0.38,-0.34
-4.54E-04,-0.388,-0.34
-4.54E-04,-0.388,-0.34
-4.54E-04,-0.396,-0.34
-4.54E-04,-0.404,-0.3
-4.53E-04,-0.388,-0.34
-4.53E-04,-0.4,-0.26
-4.53E-04,-0.396,-0.26
-4.53E-04,-0.396,-0.34
-4.53E-04,-0.396,-0.34
-4.53E-04,-0.408,-0.26
-4.53E-04,-0.4,-0.34
-4.53E-04,-0.404,-0.3
-4.53E-04,-0.408,-0.3
-4.53E-04,-0.408,-0.34
-4.52E-04,-0.408,-0.3
-4.52E-04,-0.412,-0.26
-4.52E-04,-0.42,-0.34
-4.52E-04,-0.408,-0.26
-4.52E-04,-0.412,-0.26
-4.52E-04,-0.416,-0.34
-4.52E-04,-0.412,-0.34
-4.52E-04,-0.412,-0.38
-4.52E-04,-0.416,-0.38
-4.52E-04,-0.424,-0.34
-4.51E-04,-0.428,-0.38
-4.51E-04,-0.428,-0.38
-4.51E-04,-0.428,-0.34
-4.51E-04,-0.432,-0.38
-4.51E-04,-0.432,-0.42
-4.51E-04,-0.436,-0.42
-4.51E-04,-0.436,-0.38
-4.51E-04,-0.436,-0.38
-4.51E-04,-0.448,-0.34
-4.51E-04,-0.44,-0.38
-4.50E-04,-0.444,-0.38
-4.50E-04,-0.44,-0.38
-4.50E-04,-0.436,-0.34
-4.50E-04,-0.448,-0.34
-4.50E-04,-0.44,-0.34
-4.50E-04,-0.452,-0.34
-4.50E-04,-0.444,-0.42
-4.50E-04,-0.452,-0.38
-4.50E-04,-0.456,-0.42
-4.50E-04,-0.448,-0.38
-4.49E-04,-0.46,-0.42
-4.49E-04,-0.452,-0.38
-4.49E-04,-0.46,-0.34
-4.49E-04,-0.46,-0.38
-4.49E-04,-0.46,-0.42
-4.49E-04,-0.456,-0.38
-4.49E-04,-0.468,-0.38
-4.49E-04,-0.46,-0.34
-4.49E-04,-0.476,-0.34
-4.49E-04,-0.476,-0.5
-4.48E-04,-0.468,-0.42
-4.48E-04,-0.476,-0.42
-4.48E-04,-0.468,-0.5
-4.48E-04,-0.48,-0.42
-4.48E-04,-0.484,-0.38
-4.48E-04,-0.488,-0.42
-4.48E-04,-0.48,-0.42
-4.48E-04,-0.484,-0.5
-4.48E-04,-0.488,-0.42
-4.48E-04,-0.488,-0.5
-4.47E-04,-0.496,-0.5
-4.47E-04,-0.488,-0.34
-4.47E-04,-0.48,-0.42
-4.47E-04,-0.488,-0.46
-4.47E-04,-0.476,-0.38
-4.47E-04,-0.488,-0.38
-4.47E-04,-0.5,-0.46
-4.47E-04,-0.492,-0.5
-4.47E-04,-0.504,-0.38
-4.47E-04,-0.504,-0.42
-4.46E-04,-0.504,-0.46
-4.46E-04,-0.508,-0.38
-4.46E-04,-0.504,-0.46
-4.46E-04,-0.516,-0.42
-4.46E-04,-0.512,-0.38
-4.46E-04,-0.512,-0.34
-4.46E-04,-0.516,-0.46
-4.46E-04,-0.524,-0.5
-4.46E-04,-0.516,-0.42
-4.46E-04,-0.52,-0.46
-4.45E-04,-0.524,-0.5
-4.45E-04,-0.52,-0.46
-4.45E-04,-0.524,-0.5
-4.45E-04,-0.524,-0.42
-4.45E-04,-0.528,-0.42
-4.45E-04,-0.524,-0.46
-4.45E-04,-0.532,-0.38
-4.45E-04,-0.528,-0.54
-4.45E-04,-0.528,-0.5
-4.45E-04,-0.536,-0.5
-4.44E-04,-0.536,-0.58
-4.44E-04,-0.532,-0.46
-4.44E-04,-0.532,-0.42
-4.44E-04,-0.548,-0.42
-4.44E-04,-0.54,-0.42
-4.44E-04,-0.544,-0.38
-4.44E-04,-0.54,-0.5
-4.44E-04,-0.552,-0.5
-4.44E-04,-0.548,-0.5
-4.44E-04,-0.548,-0.5
-4.43E-04,-0.548,-0.38
-4.43E-04,-0.56,-0.54
-4.43E-04,-0.556,-0.5
-4.43E-04,-0.552,-0.58
-4.43E-04,-0.556,-0.5
-4.43E-04,-0.564,-0.5
-4.43E-04,-0.564,-0.46
-4.43E-04,-0.564,-0.46
-4.43E-04,-0.556,-0.54
-4.43E-04,-0.572,-0.54
-4.42E-04,-0.572,-0.5
-4.42E-04,-0.572,-0.46
-4.42E-04,-0.576,-0.46
-4.42E-04,-0.568,-0.54
-4.42E-04,-0.58,-0.42
-4.42E-04,-0.576,-0.5
-4.42E-04,-0.576,-0.5
-4.42E-04,-0.576,-0.5
-4.42E-04,-0.576,-0.46
-4.42E-04,-0.592,-0.58
-4.41E-04,-0.58,-0.54
-4.41E-04,-0.58,-0.54
-4.41E-04,-0.584,-0.5
-4.41E-04,-0.592,-0.5
-4.41E-04,-0.588,-0.54
-4.41E-04,-0.58,-0.54
-4.41E-04,-0.592,-0.46
-4.41E-04,-0.588,-0.54
-4.41E-04,-0.596,-0.54
-4.41E-04,-0.588,-0.5
-4.40E-04,-0.596,-0.5
-4.40E-04,-0.592,-0.5
-4.40E-04,-0.596,-0.54
-4.40E-04,-0.6,-0.5
-4.40E-04,-0.6,-0.5
-4.40E-04,-0.608,-0.54
-4.40E-04,-0.608,-0.66
-4.40E-04,-0.604,-0.58
-4.40E-04,-0.608,-0.58
-4.40E-04,-0.612,-0.66
-4.39E-04,-0.6,-0.62
-4.39E-04,-0.616,-0.58
-4.39E-04,-0.616,-0.54
-4.39E-04,-0.616,-0.54
-4.39E-04,-0.62,-0.66
-4.39E-04,-0.616,-0.54
-4.39E-04,-0.62,-0.58
-4.39E-04,-0.62,-0.38
-4.39E-04,-0.628,-0.58
-4.39E-04,-0.624,-0.54
-4.38E-04,-0.628,-0.5
-4.38E-04,-0.624,-0.54
-4.38E-04,-0.62,-0.54
-4.38E-04,-0.632,-0.62
-4.38E-04,-0.64,-0.62
-4.38E-04,-0.64,-0.62
-4.38E-04,-0.636,-0.62
-4.38E-04,-0.64,-0.66
-4.38E-04,-0.632,-0.54
-4.38E-04,-0.648,-0.58
-4.37E-04,-0.636,-0.54
-4.37E-04,-0.644,-0.62
-4.37E-04,-0.644,-0.58
-4.37E-04,-0.648,-0.54
-4.37E-04,-0.64,-0.54
-4.37E-04,-0.64,-0.58
-4.37E-04,-0.652,-0.54
-4.37E-04,-0.656,-0.58
-4.37E-04,-0.66,-0.54
-4.37E-04,-0.66,-0.58
-4.36E-04,-0.652,-0.58
-4.36E-04,-0.656,-0.58
-4.36E-04,-0.66,-0.54
-4.36E-04,-0.652,-0.66
-4.36E-04,-0.672,-0.54
-4.36E-04,-0.668,-0.62
-4.36E-04,-0.66,-0.58
-4.36E-04,-0.664,-0.66
-4.36E-04,-0.668,-0.54
-4.36E-04,-0.672,-0.62
-4.35E-04,-0.664,-0.62
-4.35E-04,-0.68,-0.58
-4.35E-04,-0.676,-0.66
-4.35E-04,-0.68,-0.7
-4.35E-04,-0.676,-0.58
-4.35E-04,-0.68,-0.5
-4.35E-04,-0.684,-0.66
-4.35E-04,-0.676,-0.7
-4.35E-04,-0.684,-0.66
-4.35E-04,-0.68,-0.62
-4.34E-04,-0.672,-0.54
-4.34E-04,-0.692,-0.58
-4.34E-04,-0.7,-0.58
-4.34E-04,-0.692,-0.66
-4.34E-04,-0.684,-0.7
-4.34E-04,-0.696,-0.66
-4.34E-04,-0.7,-0.66
-4.34E-04,-0.7,-0.58
-4.34E-04,-0.688,-0.62
-4.34E-04,-0.696,-0.62
-4.33E-04,-0.712,-0.7
-4.33E-04,-0.708,-0.66
-4.33E-04,-0.7,-0.7
-4.33E-04,-0.72,-0.74
-4.33E-04,-0.712,-0.66
-4.33E-04,-0.708,-0.62
-4.33E-04,-0.708,-0.66
-4.33E-04,-0.712,-0.7
-4.33E-04,-0.716,-0.62
-4.33E-04,-0.716,-0.66
-4.32E-04,-0.716,-0.66
-4.32E-04,-0.708,-0.62
-4.32E-04,-0.716,-0.74
-4.32E-04,-0.72,-0.62
-4.32E-04,-0.728,-0.74
-4.32E-04,-0.728,-0.66
-4.32E-04,-0.72,-0.7
-4.32E-04,-0.736,-0.66
-4.32E-04,-0.736,-0.66
-4.32E-04,-0.732,-0.7
-4.31E-04,-0.728,-0.62
-4.31E-04,-0.748,-0.66
-4.31E-04,-0.744,-0.78
-4.31E-04,-0.736,-0.7
-4.31E-04,-0.736,-0.62
-4.31E-04,-0.744,-0.66
-4.31E-04,-0.744,-0.7
-4.31E-04,-0.74,-0.66
-4.31E-04,-0.756,-0.7
-4.31E-04,-0.748,-0.62
-4.30E-04,-0.748,-0.78
-4.30E-04,-0.752,-0.66
-4.30E-04,-0.748,-0.78
-4.30E-04,-0.76,-0.74
-4.30E-04,-0.76,-0.66
-4.30E-04,-0.752,-0.66
-4.30E-04,-0.76,-0.62
-4.30E-04,-0.756,-0.78
-4.30E-04,-0.76,-0.66
-4.30E-04,-0.756,-0.7
-4.29E-04,-0.768,-0.78
-4.29E-04,-0.76,-0.7
-4.29E-04,-0.768,-0.66
-4.29E-04,-0.768,-0.66
-4.29E-04,-0.76,-0.7
-4.29E-04,-0.768,-0.86
-4.29E-04,-0.776,-0.7
-4.29E-04,-0.776,-0.74
-4.29E-04,-0.784,-0.78
-4.29E-04,-0.772,-0.78
-4.28E-04,-0.776,-0.62
-4.28E-04,-0.772,-0.7
-4.28E-04,-0.776,-0.82
-4.28E-04,-0.788,-0.7
-4.28E-04,-0.788,-0.7
-4.28E-04,-0.78,-0.66
-4.28E-04,-0.796,-0.74
-4.28E-04,-0.784,-0.7
-4.28E-04,-0.792,-0.7
-4.28E-04,-0.792,-0.74
-4.27E-04,-0.804,-0.78
-4.27E-04,-0.792,-0.82
-4.27E-04,-0.796,-0.7
-4.27E-04,-0.8,-0.78
-4.27E-04,-0.8,-0.66
-4.27E-04,-0.8,-0.78
-4.27E-04,-0.808,-0.74
-4.27E-04,-0.808,-0.78
-4.27E-04,-0.808,-0.7
-4.27E-04,-0.804,-0.78
-4.26E-04,-0.808,-0.78
-4.26E-04,-0.808,-0.82
-4.26E-04,-0.804,-0.78
-4.26E-04,-0.812,-0.82
-4.26E-04,-0.82,-0.82
-4.26E-04,-0.82,-0.82
-4.26E-04,-0.816,-0.82
-4.26E-04,-0.824,-0.74
-4.26E-04,-0.824,-0.7
-4.26E-04,-0.828,-0.82
-4.25E-04,-0.832,-0.86
-4.25E-04,-0.832,-0.82
-4.25E-04,-0.824,-0.78
-4.25E-04,-0.832,-0.82
-4.25E-04,-0.828,-0.74
-4.25E-04,-0.832,-0.74
-4.25E-04,-0.844,-0.74
-4.25E-04,-0.828,-0.78
-4.25E-04,-0.832,-0.82
-4.25E-04,-0.832,-0.78
-4.24E-04,-0.84,-0.74
-4.24E-04,-0.844,-0.78
-4.24E-04,-0.852,-0.78
-4.24E-04,-0.836,-0.86
-4.24E-04,-0.848,-0.7
-4.24E-04,-0.856,-0.86
-4.24E-04,-0.852,-0.78
-4.24E-04,-0.856,-0.78
-4.24E-04,-0.86,-0.86
-4.24E-04,-0.856,-0.82
-4.23E-04,-0.856,-0.82
-4.23E-04,-0.856,-0.74
-4.23E-04,-0.852,-0.7
-4.23E-04,-0.864,-0.9
-4.23E-04,-0.856,-0.82
-4.23E-04,-0.868,-0.78
-4.23E-04,-0.86,-0.86
-4.23E-04,-0.868,-0.78
-4.23E-04,-0.868,-0.78
-4.23E-04,-0.86,-0.78
-4.22E-04,-0.872,-0.74
-4.22E-04,-0.864,-0.78
-4.22E-04,-0.872,-0.86
-4.22E-04,-0.88,-0.82
-4.22E-04,-0.868,-0.82
-4.22E-04,-0.884,-0.86
-4.22E-04,-0.872,-0.86
-4.22E-04,-0.876,-0.78
-4.22E-04,-0.872,-0.74
-4.22E-04,-0.896,-0.9
-4.21E-04,-0.884,-0.78
-4.21E-04,-0.88,-0.94
-4.21E-04,-0.892,-0.82
-4.21E-04,-0.896,-0.86
-4.21E-04,-0.9,-0.78
-4.21E-04,-0.888,-0.9
-4.21E-04,-0.888,-0.86
-4.21E-04,-0.888,-0.78
-4.21E-04,-0.904,-0.82
-4.21E-04,-0.896,-0.86
-4.20E-04,-0.908,-0.82
-4.20E-04,-0.9,-0.78
-4.20E-04,-0.9,-0.82
-4.20E-04,-0.9,-0.86
-4.20E-04,-0.9,-0.82
-4.20E-04,-0.908,-0.82
-4.20E-04,-0.904,-0.86
-4.20E-04,-0.912,-0.82
-4.20E-04,-0.912,-0.82
-4.20E-04,-0.9,-0.86
-4.19E-04,-0.904,-0.86
-4.19E-04,-0.908,-0.74
-4.19E-04,-0.912,-0.94
-4.19E-04,-0.916,-0.94
-4.19E-04,-0.924,-0.82
-4.19E-04,-0.924,-0.98
-4.19E-04,-0.92,-0.82
-4.19E-04,-0.928,-0.86
-4.19E-04,-0.92,-0.86
-4.19E-04,-0.924,-0.86
-4.18E-04,-0.924,-0.9
-4.18E-04,-0.928,-0.9
-4.18E-04,-0.928,-0.86
-4.18E-04,-0.932,-0.82
-4.18E-04,-0.936,-0.86
-4.18E-04,-0.936,-0.78
-4.18E-04,-0.924,-0.98
-4.18E-04,-0.936,-0.86
-4.18E-04,-0.948,-0.9
-4.18E-04,-0.936,-0.94
-4.17E-04,-0.948,-0.86
-4.17E-04,-0.948,-0.9
-4.17E-04,-0.948,-0.82
-4.17E-04,-0.944,-0.94
-4.17E-04,-0.952,-0.86
-4.17E-04,-0.94,-0.86
-4.17E-04,-0.936,-0.86
-4.17E-04,-0.94,-0.94
-4.17E-04,-0.936,-0.86
-4.17E-04,-0.94,-0.86
-4.16E-04,-0.936,-0.86
-4.16E-04,-0.928,-0.82
-4.16E-04,-0.936,-0.82
-4.16E-04,-0.936,-0.82
-4.16E-04,-0.928,-0.82
-4.16E-04,-0.928,-0.94
-4.16E-04,-0.932,-0.98
-4.16E-04,-0.924,-0.82
-4.16E-04,-0.92,-0.86
-4.16E-04,-0.916,-0.86
-4.15E-04,-0.928,-0.9
-4.15E-04,-0.924,-0.74
-4.15E-04,-0.916,-0.86
-4.15E-04,-0.92,-0.86
-4.15E-04,-0.912,-0.9
-4.15E-04,-0.908,-0.86
-4.15E-04,-0.912,-0.82
-4.15E-04,-0.908,-0.82
-4.15E-04,-0.908,-0.9
-4.15E-04,-0.904,-0.82
-4.14E-04,-0.904,-0.82
-4.14E-04,-0.904,-0.86
-4.14E-04,-0.9,-0.82
-4.14E-04,-0.908,-0.86
-4.14E-04,-0.9,-0.82
-4.14E-04,-0.888,-0.78
-4.14E-04,-0.9,-0.86
-4.14E-04,-0.888,-0.82
-4.14E-04,-0.884,-0.86
-4.14E-04,-0.892,-0.82
-4.13E-04,-0.892,-0.78
-4.13E-04,-0.896,-0.78
-4.13E-04,-0.88,-0.78
-4.13E-04,-0.88,-0.86
-4.13E-04,-0.888,-0.98
-4.13E-04,-0.892,-0.82
-4.13E-04,-0.876,-0.82
