ECE352_lab/Lab3/RawData/Kristen/tek0019ALL.csv

Model,DPO4034
Firmware Version,2.1

Point Format,Y,
Horizontal Units,S,
Horizontal Scale,0.002,
Sample Interval,2e-06,
Record Length,10000,
Probe Attenuation,10,10
Vertical Units,V,V
Vertical Offset,0,0
Vertical Scale,0.5,1
Label,,
TIME,CH1,CH2
-1.000e-02,-1.49,0.1
-9.998e-03,-1.45,0.1
-9.996e-03,-1.45,0.06
-9.994e-03,-1.53,0.06
-9.992e-03,-1.51,0.1
-9.990e-03,-1.45,0.1
-9.988e-03,-1.47,0.1
-9.986e-03,-1.49,0.1
-9.984e-03,-1.49,0.06
-9.982e-03,-1.49,0.1
-9.980e-03,-1.51,0.1
-9.978e-03,-1.49,0.06
-9.976e-03,-1.49,0.14
-9.974e-03,-1.51,0.1
-9.972e-03,-1.51,0.14
-9.970e-03,-1.47,0.06
-9.968e-03,-1.47,0.06
-9.966e-03,-1.53,0.1
-9.964e-03,-1.49,0.06
-9.962e-03,-1.49,0.1
-9.960e-03,-1.49,0.06
-9.958e-03,-1.51,0.14
-9.956e-03,-1.45,0.06
-9.954e-03,-1.45,0.06
-9.952e-03,-1.47,0.1
-9.950e-03,-1.47,0.1
-9.948e-03,-1.47,0.1
-9.946e-03,-1.49,0.06
-9.944e-03,-1.49,0.14
-9.942e-03,-1.51,0.1
-9.940e-03,-1.45,0.1
-9.938e-03,-1.49,0.1
-9.936e-03,-1.49,0.1
-9.934e-03,-1.47,0.06
-9.932e-03,-1.49,0.06
-9.930e-03,-1.45,0.1
-9.928e-03,-1.45,0.06
-9.926e-03,-1.41,0.1
-9.924e-03,-1.51,0.14
-9.922e-03,-1.45,0.1
-9.920e-03,-1.51,0.1
-9.918e-03,-1.47,0.1
-9.916e-03,-1.47,0.06
-9.914e-03,-1.49,0.1
-9.912e-03,-1.49,0.06
-9.910e-03,-1.45,0.06
-9.908e-03,-1.45,0.1
-9.906e-03,-1.45,0.06
-9.904e-03,-1.45,0.06
-9.902e-03,-1.47,0.06
-9.900e-03,-1.51,0.06
-9.898e-03,-1.49,0.06
-9.896e-03,-1.47,0.06
-9.894e-03,-1.47,0.06
-9.892e-03,-1.45,0.1
-9.890e-03,-1.49,0.06
-9.888e-03,-1.45,0.1
-9.886e-03,-1.45,0.06
-9.884e-03,-1.45,0.06
-9.882e-03,-1.41,0.14
-9.880e-03,-1.45,0.1
-9.878e-03,-1.45,0.06
-9.876e-03,-1.49,0.06
-9.874e-03,-1.45,0.06
-9.872e-03,-1.45,0.06
-9.870e-03,-1.45,0.06
-9.868e-03,-1.47,0.06
-9.866e-03,-1.45,0.1
-9.864e-03,-1.47,0.06
-9.862e-03,-1.43,0.14
-9.860e-03,-1.45,0.06
-9.858e-03,-1.47,0.06
-9.856e-03,-1.41,0.1
-9.854e-03,-1.45,0.1
-9.852e-03,-1.47,0.06
-9.850e-03,-1.45,0.06
-9.848e-03,-1.45,0.1
-9.846e-03,-1.47,0.1
-9.844e-03,-1.45,0.06
-9.842e-03,-1.45,0.1
-9.840e-03,-1.43,0.1
-9.838e-03,-1.43,0.06
-9.836e-03,-1.43,0.06
-9.834e-03,-1.41,0.06
-9.832e-03,-1.47,0.1
-9.830e-03,-1.45,0.1
-9.828e-03,-1.43,0.06
-9.826e-03,-1.43,0.06
-9.824e-03,-1.45,0.1
-9.822e-03,-1.41,0.06
-9.820e-03,-1.45,0.06
-9.818e-03,-1.43,0.06
-9.816e-03,-1.43,0.1
-9.814e-03,-1.43,0.1
-9.812e-03,-1.45,0.1
-9.810e-03,-1.41,0.06
-9.808e-03,-1.39,0.14
-9.806e-03,-1.41,0.06
-9.804e-03,-1.43,0.1
-9.802e-03,-1.43,0.1
-9.800e-03,-1.45,0.1
-9.798e-03,-1.41,0.06
-9.796e-03,-1.37,0.06
-9.794e-03,-1.45,0.1
-9.792e-03,-1.43,0.06
-9.790e-03,-1.41,0.1
-9.788e-03,-1.41,0.06
-9.786e-03,-1.45,0.06
-9.784e-03,-1.41,0.06
-9.782e-03,-1.41,0.06
-9.780e-03,-1.47,0.06
-9.778e-03,-1.43,0.06
-9.776e-03,-1.41,0.1
-9.774e-03,-1.41,0.06
-9.772e-03,-1.43,0.1
-9.770e-03,-1.45,0.06
-9.768e-03,-1.41,0.06
-9.766e-03,-1.41,0.06
-9.764e-03,-1.41,0.06
-9.762e-03,-1.43,0.06
-9.760e-03,-1.39,0.1
-9.758e-03,-1.43,0.06
-9.756e-03,-1.45,0.06
-9.754e-03,-1.37,0.1
-9.752e-03,-1.37,0.14
-9.750e-03,-1.39,0.06
-9.748e-03,-1.43,0.06
-9.746e-03,-1.41,0.1
-9.744e-03,-1.39,0.02
-9.742e-03,-1.39,0.1
-9.740e-03,-1.39,0.06
-9.738e-03,-1.41,0.1
-9.736e-03,-1.35,0.1
-9.734e-03,-1.37,0.06
-9.732e-03,-1.45,0.1
-9.730e-03,-1.45,0.06
-9.728e-03,-1.39,0.1
-9.726e-03,-1.41,0.1
-9.724e-03,-1.39,0.14
-9.722e-03,-1.41,0.1
-9.720e-03,-1.37,0.1
-9.718e-03,-1.41,0.06
-9.716e-03,-1.39,0.14
-9.714e-03,-1.37,0.1
-9.712e-03,-1.41,0.06
-9.710e-03,-1.39,0.1
-9.708e-03,-1.39,0.06
-9.706e-03,-1.37,0.06
-9.704e-03,-1.37,0.1
-9.702e-03,-1.37,0.02
-9.700e-03,-1.39,0.06
-9.698e-03,-1.39,0.06
-9.696e-03,-1.39,0.1
-9.694e-03,-1.41,0.1
-9.692e-03,-1.37,0.1
-9.690e-03,-1.33,0.1
-9.688e-03,-1.39,0.14
-9.686e-03,-1.35,0.06
-9.684e-03,-1.37,0.06
-9.682e-03,-1.37,0.06
-9.680e-03,-1.39,0.1
-9.678e-03,-1.39,0.14
-9.676e-03,-1.37,0.06
-9.674e-03,-1.39,0.1
-9.672e-03,-1.35,0.1
-9.670e-03,-1.39,0.1
-9.668e-03,-1.33,0.06
-9.666e-03,-1.33,0.06
-9.664e-03,-1.37,0.06
-9.662e-03,-1.35,0.06
-9.660e-03,-1.41,0.06
-9.658e-03,-1.35,0.06
-9.656e-03,-1.33,0.06
-9.654e-03,-1.35,0.06
-9.652e-03,-1.37,0.06
-9.650e-03,-1.33,0.06
-9.648e-03,-1.35,0.06
-9.646e-03,-1.35,0.1
-9.644e-03,-1.37,0.06
-9.642e-03,-1.33,0.06
-9.640e-03,-1.33,0.06
-9.638e-03,-1.35,0.1
-9.636e-03,-1.33,0.1
-9.634e-03,-1.33,0.1
-9.632e-03,-1.33,0.06
-9.630e-03,-1.33,0.1
-9.628e-03,-1.37,0.06
-9.626e-03,-1.35,0.1
-9.624e-03,-1.33,0.06
-9.622e-03,-1.35,0.1
-9.620e-03,-1.35,0.1
-9.618e-03,-1.33,0.06
-9.616e-03,-1.31,0.06
-9.614e-03,-1.33,0.14
-9.612e-03,-1.33,0.06
-9.610e-03,-1.31,0.06
-9.608e-03,-1.33,0.06
-9.606e-03,-1.31,0.1
-9.604e-03,-1.33,0.06
-9.602e-03,-1.31,0.06
-9.600e-03,-1.33,0.06
-9.598e-03,-1.33,0.06
-9.596e-03,-1.33,0.1
-9.594e-03,-1.29,0.1
-9.592e-03,-1.31,0.1
-9.590e-03,-1.33,0.06
-9.588e-03,-1.33,0.1
-9.586e-03,-1.29,0.06
-9.584e-03,-1.33,0.06
-9.582e-03,-1.27,0.06
-9.580e-03,-1.29,0.06
-9.578e-03,-1.29,0.1
-9.576e-03,-1.29,0.06
-9.574e-03,-1.29,0.06
-9.572e-03,-1.31,0.06
-9.570e-03,-1.31,0.1
-9.568e-03,-1.27,0.06
-9.566e-03,-1.31,0.1
-9.564e-03,-1.27,0.06
-9.562e-03,-1.27,0.06
-9.560e-03,-1.27,0.06
-9.558e-03,-1.31,0.06
-9.556e-03,-1.31,0.06
-9.554e-03,-1.27,0.1
-9.552e-03,-1.27,0.06
-9.550e-03,-1.27,0.1
-9.548e-03,-1.27,0.06
-9.546e-03,-1.29,0.1
-9.544e-03,-1.29,0.02
-9.542e-03,-1.29,0.06
-9.540e-03,-1.29,0.06
-9.538e-03,-1.23,0.06
-9.536e-03,-1.29,0.1
-9.534e-03,-1.29,0.06
-9.532e-03,-1.29,0.06
-9.530e-03,-1.25,0.06
-9.528e-03,-1.29,0.1
-9.526e-03,-1.25,0.1
-9.524e-03,-1.27,0.1
-9.522e-03,-1.25,0.1
-9.520e-03,-1.23,0.06
-9.518e-03,-1.23,0.06
-9.516e-03,-1.23,0.1
-9.514e-03,-1.25,0.14
-9.512e-03,-1.27,0.02
-9.510e-03,-1.23,0.06
-9.508e-03,-1.27,0.1
-9.506e-03,-1.27,0.06
-9.504e-03,-1.23,0.1
-9.502e-03,-1.25,0.06
-9.500e-03,-1.23,0.1
-9.498e-03,-1.27,0.1
-9.496e-03,-1.25,0.06
-9.494e-03,-1.23,0.06
-9.492e-03,-1.23,0.06
-9.490e-03,-1.19,0.1
-9.488e-03,-1.23,0.1
-9.486e-03,-1.25,0.06
-9.484e-03,-1.25,0.06
-9.482e-03,-1.21,0.06
-9.480e-03,-1.21,0.06
-9.478e-03,-1.23,0.06
-9.476e-03,-1.21,0.1
-9.474e-03,-1.19,0.1
-9.472e-03,-1.21,0.1
-9.470e-03,-1.23,0.1
-9.468e-03,-1.21,0.06
-9.466e-03,-1.19,0.1
-9.464e-03,-1.23,0.06
-9.462e-03,-1.23,0.1
-9.460e-03,-1.23,0.1
-9.458e-03,-1.19,0.06
-9.456e-03,-1.19,0.06
-9.454e-03,-1.21,0.1
-9.452e-03,-1.19,0.02
-9.450e-03,-1.19,0.1
-9.448e-03,-1.17,0.1
-9.446e-03,-1.19,0.1
-9.444e-03,-1.17,0.1
-9.442e-03,-1.17,0.1
-9.440e-03,-1.17,0.1
-9.438e-03,-1.19,0.06
-9.436e-03,-1.17,0.06
-9.434e-03,-1.17,0.06
-9.432e-03,-1.19,0.06
-9.430e-03,-1.21,0.06
-9.428e-03,-1.15,0.06
-9.426e-03,-1.19,0.1
-9.424e-03,-1.15,0.06
-9.422e-03,-1.13,0.1
-9.420e-03,-1.17,0.06
-9.418e-03,-1.15,0.06
-9.416e-03,-1.15,0.06
-9.414e-03,-1.17,0.1
-9.412e-03,-1.15,0.06
-9.410e-03,-1.19,0.06
-9.408e-03,-1.19,0.06
-9.406e-03,-1.13,0.1
-9.404e-03,-1.15,0.06
-9.402e-03,-1.13,0.06
-9.400e-03,-1.15,0.02
-9.398e-03,-1.15,0.06
-9.396e-03,-1.13,0.06
-9.394e-03,-1.13,0.06
-9.392e-03,-1.11,0.06
-9.390e-03,-1.13,0.06
-9.388e-03,-1.15,0.06
-9.386e-03,-1.09,0.1
-9.384e-03,-1.13,0.06
-9.382e-03,-1.15,0.06
-9.380e-03,-1.13,0.06
-9.378e-03,-1.09,0.06
-9.376e-03,-1.11,0.06
-9.374e-03,-1.13,0.1
-9.372e-03,-1.11,0.1
-9.370e-03,-1.09,0.06
-9.368e-03,-1.13,0.1
-9.366e-03,-1.07,0.06
-9.364e-03,-1.13,0.06
-9.362e-03,-1.11,0.06
-9.360e-03,-1.13,0.06
-9.358e-03,-1.09,0.06
-9.356e-03,-1.11,0.1
-9.354e-03,-1.11,0.1
-9.352e-03,-1.07,0.06
-9.350e-03,-1.05,0.06
-9.348e-03,-1.09,0.06
-9.346e-03,-1.09,0.06
-9.344e-03,-1.09,0.06
-9.342e-03,-1.09,0.1
-9.340e-03,-1.11,0.06
-9.338e-03,-1.07,0.06
-9.336e-03,-1.11,0.06
-9.334e-03,-1.11,0.06
-9.332e-03,-1.09,0.1
-9.330e-03,-1.05,0.06
-9.328e-03,-1.07,0.1
-9.326e-03,-1.09,0.1
-9.324e-03,-1.03,0.06
-9.322e-03,-1.01,0.06
-9.320e-03,-1.05,0.1
-9.318e-03,-1.07,0.06
-9.316e-03,-1.09,0.02
-9.314e-03,-1.07,0.06
-9.312e-03,-1.05,0.06
-9.310e-03,-1.05,0.02
-9.308e-03,-1.05,0.1
-9.306e-03,-1.05,0.1
-9.304e-03,-1.07,0.1
-9.302e-03,-1.05,0.1
-9.300e-03,-1.03,0.06
-9.298e-03,-1.07,0.1
-9.296e-03,-1.07,0.06
-9.294e-03,-1.03,0.1
-9.292e-03,-1.01,0.06
-9.290e-03,-1.07,0.14
-9.288e-03,-1.07,0.06
-9.286e-03,-1.05,0.1
-9.284e-03,-0.99,0.06
-9.282e-03,-1.05,0.06
-9.280e-03,-1.01,0.06
-9.278e-03,-1.03,0.1
-9.276e-03,-1.03,0.1
-9.274e-03,-1.01,0.1
-9.272e-03,-1.03,0.06
-9.270e-03,-1.01,0.06
-9.268e-03,-0.99,0.06
-9.266e-03,-1.01,0.1
-9.264e-03,-1.01,0.06
-9.262e-03,-1.01,0.06
-9.260e-03,-0.99,0.06
-9.258e-03,-1.01,0.06
-9.256e-03,-1.01,0.06
-9.254e-03,-0.95,0.14
-9.252e-03,-0.99,0.06
-9.250e-03,-1.01,0.1
-9.248e-03,-0.97,0.06
-9.246e-03,-0.97,0.06
-9.244e-03,-0.95,0.1
-9.242e-03,-0.99,0.06
-9.240e-03,-0.97,0.1
-9.238e-03,-0.93,0.06
-9.236e-03,-0.97,0.06
-9.234e-03,-0.95,0.06
-9.232e-03,-0.95,0.02
-9.230e-03,-0.93,0.1
-9.228e-03,-0.93,0.06
-9.226e-03,-0.99,0.1
-9.224e-03,-0.93,0.06
-9.222e-03,-0.95,0.1
-9.220e-03,-0.95,0.06
-9.218e-03,-0.95,0.06
-9.216e-03,-0.91,0.1
-9.214e-03,-0.93,0.06
-9.212e-03,-0.93,0.1
-9.210e-03,-0.93,0.02
-9.208e-03,-0.91,0.1
-9.206e-03,-0.93,0.1
-9.204e-03,-0.91,0.06
-9.202e-03,-0.95,0.1
-9.200e-03,-0.91,0.1
-9.198e-03,-0.91,0.1
-9.196e-03,-0.91,0.1
-9.194e-03,-0.95,0.1
-9.192e-03,-0.89,0.06
-9.190e-03,-0.89,0.1
-9.188e-03,-0.89,0.06
-9.186e-03,-0.93,0.06
-9.184e-03,-0.91,0.14
-9.182e-03,-0.87,0.06
-9.180e-03,-0.93,0.06
-9.178e-03,-0.91,0.1
-9.176e-03,-0.89,0.1
-9.174e-03,-0.87,0.06
-9.172e-03,-0.89,0.06
-9.170e-03,-0.87,0.06
-9.168e-03,-0.87,0.06
-9.166e-03,-0.85,0.06
-9.164e-03,-0.91,0.06
-9.162e-03,-0.89,0.1
-9.160e-03,-0.87,0.1
-9.158e-03,-0.87,0.06
-9.156e-03,-0.87,0.06
-9.154e-03,-0.85,0.1
-9.152e-03,-0.87,0.1
-9.150e-03,-0.87,0.1
-9.148e-03,-0.83,0.06
-9.146e-03,-0.81,0.06
-9.144e-03,-0.85,0.06
-9.142e-03,-0.81,0.1
-9.140e-03,-0.85,0.1
-9.138e-03,-0.87,0.02
-9.136e-03,-0.83,0.06
-9.134e-03,-0.89,0.1
-9.132e-03,-0.83,0.1
-9.130e-03,-0.85,0.06
-9.128e-03,-0.83,0.06
-9.126e-03,-0.83,0.1
-9.124e-03,-0.85,0.06
-9.122e-03,-0.81,0.06
-9.120e-03,-0.85,0.1
-9.118e-03,-0.83,0.06
-9.116e-03,-0.85,0.06
-9.114e-03,-0.81,0.06
-9.112e-03,-0.81,0.1
-9.110e-03,-0.83,0.06
-9.108e-03,-0.79,0.06
-9.106e-03,-0.81,0.06
-9.104e-03,-0.79,0.06
-9.102e-03,-0.79,0.1
-9.100e-03,-0.83,0.1
-9.098e-03,-0.81,0.1
-9.096e-03,-0.79,0.1
-9.094e-03,-0.77,0.06
-9.092e-03,-0.77,0.06
-9.090e-03,-0.77,0.06
-9.088e-03,-0.77,0.06
-9.086e-03,-0.77,0.1
-9.084e-03,-0.77,0.06
-9.082e-03,-0.79,0.06
-9.080e-03,-0.75,0.06
-9.078e-03,-0.75,0.1
-9.076e-03,-0.77,0.06
-9.074e-03,-0.77,0.06
-9.072e-03,-0.73,0.1
-9.070e-03,-0.73,0.1
-9.068e-03,-0.73,0.02
-9.066e-03,-0.73,0.1
-9.064e-03,-0.73,0.06
-9.062e-03,-0.75,0.1
-9.060e-03,-0.73,0.06
-9.058e-03,-0.75,0.1
-9.056e-03,-0.67,0.06
-9.054e-03,-0.71,0.06
-9.052e-03,-0.75,0.06
-9.050e-03,-0.73,0.06
-9.048e-03,-0.73,0.1
-9.046e-03,-0.71,0.06
-9.044e-03,-0.71,0.06
-9.042e-03,-0.69,0.1
-9.040e-03,-0.73,0.06
-9.038e-03,-0.73,0.06
-9.036e-03,-0.69,0.06
-9.034e-03,-0.69,0.06
-9.032e-03,-0.69,0.06
-9.030e-03,-0.69,0.06
-9.028e-03,-0.69,0.06
-9.026e-03,-0.69,0.06
-9.024e-03,-0.69,0.06
-9.022e-03,-0.69,0.06
-9.020e-03,-0.65,0.1
-9.018e-03,-0.67,0.06
-9.016e-03,-0.69,0.06
-9.014e-03,-0.67,0.1
-9.012e-03,-0.67,0.06
-9.010e-03,-0.65,0.06
-9.008e-03,-0.65,0.06
-9.006e-03,-0.63,0.1
-9.004e-03,-0.63,0.06
-9.002e-03,-0.65,0.06
-9.000e-03,-0.63,0.06
-8.998e-03,-0.63,0.06
-8.996e-03,-0.59,0.06
-8.994e-03,-0.63,0.1
-8.992e-03,-0.63,0.06
-8.990e-03,-0.65,0.06
-8.988e-03,-0.65,0.06
-8.986e-03,-0.63,0.06
-8.984e-03,-0.63,0.06
-8.982e-03,-0.63,0.06
-8.980e-03,-0.61,0.06
-8.978e-03,-0.61,0.06
-8.976e-03,-0.63,0.06
-8.974e-03,-0.61,0.06
-8.972e-03,-0.63,0.06
-8.970e-03,-0.59,0.06
-8.968e-03,-0.59,0.06
-8.966e-03,-0.63,0.06
-8.964e-03,-0.61,0.06
-8.962e-03,-0.61,0.06
-8.960e-03,-0.59,0.06
-8.958e-03,-0.57,0.1
-8.956e-03,-0.61,0.06
-8.954e-03,-0.57,0.02
-8.952e-03,-0.57,0.06
-8.950e-03,-0.57,0.06
-8.948e-03,-0.53,0.1
-8.946e-03,-0.55,0.06
-8.944e-03,-0.57,0.06
-8.942e-03,-0.55,0.06
-8.940e-03,-0.53,0.1
-8.938e-03,-0.53,0.06
-8.936e-03,-0.55,0.06
-8.934e-03,-0.55,0.02
-8.932e-03,-0.55,0.1
-8.930e-03,-0.59,0.06
-8.928e-03,-0.55,0.06
-8.926e-03,-0.53,0.06
-8.924e-03,-0.53,0.1
-8.922e-03,-0.51,0.06
-8.920e-03,-0.53,0.02
-8.918e-03,-0.55,0.06
-8.916e-03,-0.53,0.02
-8.914e-03,-0.47,0.1
-8.912e-03,-0.53,0.06
-8.910e-03,-0.51,0.06
-8.908e-03,-0.53,0.1
-8.906e-03,-0.51,0.06
-8.904e-03,-0.47,0.06
-8.902e-03,-0.49,0.06
-8.900e-03,-0.49,0.1
-8.898e-03,-0.49,0.06
-8.896e-03,-0.51,0.06
-8.894e-03,-0.53,0.06
-8.892e-03,-0.45,0.06
-8.890e-03,-0.47,0.06
-8.888e-03,-0.47,0.06
-8.886e-03,-0.47,0.06
-8.884e-03,-0.45,0.06
-8.882e-03,-0.47,0.06
-8.880e-03,-0.45,0.06
-8.878e-03,-0.49,0.1
-8.876e-03,-0.49,0.06
-8.874e-03,-0.49,0.06
-8.872e-03,-0.43,0.06
-8.870e-03,-0.45,0.06
-8.868e-03,-0.45,0.06
-8.866e-03,-0.43,0.14
-8.864e-03,-0.47,0.06
-8.862e-03,-0.47,0.06
-8.860e-03,-0.45,0.06
-8.858e-03,-0.43,0.06
-8.856e-03,-0.45,0.06
-8.854e-03,-0.45,0.02
-8.852e-03,-0.45,0.06
-8.850e-03,-0.41,0.1
-8.848e-03,-0.45,0.06
-8.846e-03,-0.39,0.06
-8.844e-03,-0.41,0.1
-8.842e-03,-0.41,0.1
-8.840e-03,-0.39,0.1
-8.838e-03,-0.39,0.06
-8.836e-03,-0.39,0.06
-8.834e-03,-0.39,0.1
-8.832e-03,-0.41,0.06
-8.830e-03,-0.43,0.1
-8.828e-03,-0.37,0.06
-8.826e-03,-0.39,0.02
-8.824e-03,-0.39,0.06
-8.822e-03,-0.43,0.1
-8.820e-03,-0.39,0.1
-8.818e-03,-0.37,0.06
-8.816e-03,-0.37,0.02
-8.814e-03,-0.43,0.06
-8.812e-03,-0.37,0.06
-8.810e-03,-0.37,0.06
-8.808e-03,-0.35,0.1
-8.806e-03,-0.37,0.1
-8.804e-03,-0.41,0.06
-8.802e-03,-0.35,0.06
-8.800e-03,-0.37,0.06
-8.798e-03,-0.37,0.06
-8.796e-03,-0.37,0.06
-8.794e-03,-0.35,0.1
-8.792e-03,-0.29,0.06
-8.790e-03,-0.29,0.14
-8.788e-03,-0.31,0.06
-8.786e-03,-0.33,0.1
-8.784e-03,-0.33,0.06
-8.782e-03,-0.35,0.06
-8.780e-03,-0.31,0.14
-8.778e-03,-0.27,0.02
-8.776e-03,-0.29,0.06
-8.774e-03,-0.33,0.06
-8.772e-03,-0.31,0.06
-8.770e-03,-0.27,0.06
-8.768e-03,-0.31,0.1
-8.766e-03,-0.27,0.1
-8.764e-03,-0.31,0.1
-8.762e-03,-0.31,0.06
-8.760e-03,-0.31,0.06
-8.758e-03,-0.27,0.06
-8.756e-03,-0.31,0.06
-8.754e-03,-0.29,0.06
-8.752e-03,-0.25,0.1
-8.750e-03,-0.31,0.02
-8.748e-03,-0.25,0.1
-8.746e-03,-0.27,0.1
-8.744e-03,-0.29,0.06
-8.742e-03,-0.25,0.1
-8.740e-03,-0.29,0.06
-8.738e-03,-0.25,0.06
-8.736e-03,-0.25,0.06
-8.734e-03,-0.27,0.06
-8.732e-03,-0.23,0.06
-8.730e-03,-0.27,0.06
-8.728e-03,-0.27,0.06
-8.726e-03,-0.23,0.02
-8.724e-03,-0.23,0.06
-8.722e-03,-0.21,0.06
-8.720e-03,-0.23,0.02
-8.718e-03,-0.23,0.1
-8.716e-03,-0.25,0.1
-8.714e-03,-0.21,0.06
-8.712e-03,-0.21,0.1
-8.710e-03,-0.21,0.1
-8.708e-03,-0.23,0.06
-8.706e-03,-0.17,0.06
-8.704e-03,-0.19,0.1
-8.702e-03,-0.19,0.1
-8.700e-03,-0.19,0.06
-8.698e-03,-0.21,0.06
-8.696e-03,-0.19,0.06
-8.694e-03,-0.13,0.02
-8.692e-03,-0.17,0.06
-8.690e-03,-0.17,0.06
-8.688e-03,-0.15,0.06
-8.686e-03,-0.17,0.06
-8.684e-03,-0.15,0.06
-8.682e-03,-0.15,-0.02
-8.680e-03,-0.17,0.06
-8.678e-03,-0.15,0.06
-8.676e-03,-0.15,0.06
-8.674e-03,-0.17,0.06
-8.672e-03,-0.15,0.06
-8.670e-03,-0.13,0.06
-8.668e-03,-0.15,0.06
-8.666e-03,-0.13,0.06
-8.664e-03,-0.17,0.06
-8.662e-03,-0.13,0.06
-8.660e-03,-0.11,0.1
-8.658e-03,-0.11,0.02
-8.656e-03,-0.11,0.06
-8.654e-03,-0.15,0.06
-8.652e-03,-0.13,0.1
-8.650e-03,-0.09,0.06
-8.648e-03,-0.11,0.06
-8.646e-03,-0.05,0.06
-8.644e-03,-0.13,0.02
-8.642e-03,-0.11,0.1
-8.640e-03,-0.09,0.1
-8.638e-03,-0.07,0.02
-8.636e-03,-0.07,0.06
-8.634e-03,-0.09,0.1
-8.632e-03,-0.07,0.06
-8.630e-03,-0.11,0.06
-8.628e-03,-0.09,0.1
-8.626e-03,-0.05,0.1
-8.624e-03,-0.03,0.06
-8.622e-03,-0.07,0.1
-8.620e-03,-0.03,0.06
-8.618e-03,-0.07,0.06
-8.616e-03,-0.05,0.06
-8.614e-03,-0.03,0.06
-8.612e-03,-0.05,0.1
-8.610e-03,-0.05,0.1
-8.608e-03,-0.03,0.06
-8.606e-03,-0.01,0.06
-8.604e-03,-0.03,0.06
-8.602e-03,-0.01,0.06
-8.600e-03,-0.03,0.06
-8.598e-03,-0.01,0.06
-8.596e-03,-0.01,0.1
-8.594e-03,0.03,0.1
-8.592e-03,-0.03,0.06
-8.590e-03,0.01,0.1
-8.588e-03,-0.01,0.1
-8.586e-03,-0.01,0.1
-8.584e-03,0.01,0.06
-8.582e-03,0.01,0.06
-8.580e-03,0.01,0.06
-8.578e-03,-0.03,0.1
-8.576e-03,0.03,0.06
-8.574e-03,0.05,0.06
-8.572e-03,0.01,0.1
-8.570e-03,-0.03,0.06
-8.568e-03,0.03,0.06
-8.566e-03,0.03,0.06
-8.564e-03,0.03,0.06
-8.562e-03,0.01,0.1
-8.560e-03,0.03,0.06
-8.558e-03,0.05,0.06
-8.556e-03,0.05,0.1
-8.554e-03,0.03,0.06
-8.552e-03,0.05,0.06
-8.550e-03,0.05,0.06
-8.548e-03,0.03,0.06
-8.546e-03,0.03,0.1
-8.544e-03,0.03,0.06
-8.542e-03,0.07,0.06
-8.540e-03,0.09,0.06
-8.538e-03,0.05,0.06
-8.536e-03,0.07,0.06
-8.534e-03,0.09,0.06
-8.532e-03,0.11,0.06
-8.530e-03,0.05,0.06
-8.528e-03,0.09,0.02
-8.526e-03,0.09,0.06
-8.524e-03,0.11,0.06
-8.522e-03,0.09,0.1
-8.520e-03,0.13,0.1
-8.518e-03,0.09,0.06
-8.516e-03,0.13,0.1
-8.514e-03,0.13,0.06
-8.512e-03,0.09,0.06
-8.510e-03,0.11,0.02
-8.508e-03,0.15,0.06
-8.506e-03,0.11,0.06
-8.504e-03,0.13,0.06
-8.502e-03,0.17,0.06
-8.500e-03,0.11,0.06
-8.498e-03,0.09,0.02
-8.496e-03,0.11,0.02
-8.494e-03,0.17,0.1
-8.492e-03,0.15,0.14
-8.490e-03,0.15,0.06
-8.488e-03,0.15,0.06
-8.486e-03,0.15,0.06
-8.484e-03,0.17,0.06
-8.482e-03,0.15,0.06
-8.480e-03,0.11,0.06
-8.478e-03,0.17,0.06
-8.476e-03,0.17,0.06
-8.474e-03,0.15,0.06
-8.472e-03,0.15,0.06
-8.470e-03,0.17,0.06
-8.468e-03,0.17,0.02
-8.466e-03,0.19,0.06
-8.464e-03,0.17,0.1
-8.462e-03,0.21,0.1
-8.460e-03,0.17,0.06
-8.458e-03,0.21,0.06
-8.456e-03,0.19,0.06
-8.454e-03,0.23,0.06
-8.452e-03,0.17,0.1
-8.450e-03,0.17,0.1
-8.448e-03,0.19,0.06
-8.446e-03,0.25,0.06
-8.444e-03,0.23,0.06
-8.442e-03,0.25,0.06
-8.440e-03,0.21,0.06
-8.438e-03,0.19,0.06
-8.436e-03,0.27,0.1
-8.434e-03,0.21,0.06
-8.432e-03,0.25,0.02
-8.430e-03,0.21,0.06
-8.428e-03,0.27,0.06
-8.426e-03,0.25,0.02
-8.424e-03,0.25,0.06
-8.422e-03,0.27,0.06
-8.420e-03,0.27,0.06
-8.418e-03,0.23,0.06
-8.416e-03,0.25,0.06
-8.414e-03,0.27,0.02
-8.412e-03,0.23,0.06
-8.410e-03,0.23,0.1
-8.408e-03,0.27,0.06
-8.406e-03,0.27,0.06
-8.404e-03,0.27,0.06
-8.402e-03,0.29,0.06
-8.400e-03,0.37,0.02
-8.398e-03,0.29,0.06
-8.396e-03,0.33,0.06
-8.394e-03,0.31,0.06
-8.392e-03,0.33,0.06
-8.390e-03,0.33,0.06
-8.388e-03,0.29,0.1
-8.386e-03,0.31,0.06
-8.384e-03,0.33,0.02
-8.382e-03,0.35,0.06
-8.380e-03,0.27,0.06
-8.378e-03,0.35,0.06
-8.376e-03,0.33,0.06
-8.374e-03,0.33,0.02
-8.372e-03,0.33,0.06
-8.370e-03,0.33,0.02
-8.368e-03,0.31,0.02
-8.366e-03,0.33,0.06
-8.364e-03,0.33,0.1
-8.362e-03,0.37,0.06
-8.360e-03,0.35,0.1
-8.358e-03,0.35,0.06
-8.356e-03,0.33,0.1
-8.354e-03,0.35,0.06
-8.352e-03,0.35,0.06
-8.350e-03,0.37,0.06
-8.348e-03,0.35,0.06
-8.346e-03,0.39,0.06
-8.344e-03,0.37,0.06
-8.342e-03,0.37,0.06
-8.340e-03,0.37,0.06
-8.338e-03,0.41,0.02
-8.336e-03,0.39,0.06
-8.334e-03,0.41,0.06
-8.332e-03,0.37,0.1
-8.330e-03,0.37,0.1
-8.328e-03,0.39,0.06
-8.326e-03,0.41,0.06
-8.324e-03,0.39,0.06
-8.322e-03,0.39,0.1
-8.320e-03,0.41,0.06
-8.318e-03,0.39,0.06
-8.316e-03,0.41,0.06
-8.314e-03,0.43,0.06
-8.312e-03,0.41,0.06
-8.310e-03,0.43,0.06
-8.308e-03,0.41,0.1
-8.306e-03,0.41,0.06
-8.304e-03,0.45,0.1
-8.302e-03,0.45,0.06
-8.300e-03,0.45,0.06
-8.298e-03,0.45,0.06
-8.296e-03,0.39,0.1
-8.294e-03,0.45,0.06
-8.292e-03,0.47,0.06
-8.290e-03,0.45,0.06
-8.288e-03,0.45,0.06
-8.286e-03,0.47,0.06
-8.284e-03,0.47,0.06
-8.282e-03,0.49,0.06
-8.280e-03,0.43,0.06
-8.278e-03,0.47,0.06
-8.276e-03,0.47,0.06
-8.274e-03,0.49,0.06
-8.272e-03,0.49,0.06
-8.270e-03,0.45,0.1
-8.268e-03,0.49,0.06
-8.266e-03,0.51,0.06
-8.264e-03,0.49,0.1
-8.262e-03,0.55,0.06
-8.260e-03,0.49,0.06
-8.258e-03,0.51,0.06
-8.256e-03,0.47,0.02
-8.254e-03,0.51,0.06
-8.252e-03,0.47,0.1
-8.250e-03,0.53,0.06
-8.248e-03,0.55,0.06
-8.246e-03,0.55,0.06
-8.244e-03,0.55,0.06
-8.242e-03,0.53,0.02
-8.240e-03,0.53,0.06
-8.238e-03,0.59,0.02
-8.236e-03,0.51,0.02
-8.234e-03,0.51,0.06
-8.232e-03,0.53,0.1
-8.230e-03,0.55,0.06
-8.228e-03,0.55,0.06
-8.226e-03,0.51,0.06
-8.224e-03,0.55,0.06
-8.222e-03,0.57,0.06
-8.220e-03,0.51,0.06
-8.218e-03,0.55,0.06
-8.216e-03,0.57,0.06
-8.214e-03,0.55,0.06
-8.212e-03,0.59,0.06
-8.210e-03,0.61,0.1
-8.208e-03,0.57,0.02
-8.206e-03,0.59,0.02
-8.204e-03,0.57,0.06
-8.202e-03,0.59,0.06
-8.200e-03,0.57,0.06
-8.198e-03,0.59,0.02
-8.196e-03,0.61,0.06
-8.194e-03,0.61,0.1
-8.192e-03,0.57,0.06
-8.190e-03,0.61,0.02
-8.188e-03,0.59,0.06
-8.186e-03,0.65,0.06
-8.184e-03,0.59,0.06
-8.182e-03,0.63,0.1
-8.180e-03,0.65,0.06
-8.178e-03,0.59,0.06
-8.176e-03,0.61,0.06
-8.174e-03,0.59,0.06
-8.172e-03,0.65,0.1
-8.170e-03,0.67,0.06
-8.168e-03,0.61,0.06
-8.166e-03,0.63,0.06
-8.164e-03,0.61,0.06
