ECE352_lab/Lab3/RawData/Kristen/tek0024ALL.csv

Model,DPO4034
Firmware Version,2.1

Point Format,Y,
Horizontal Units,S,
Horizontal Scale,0.0001,
Sample Interval,1e-07,
Record Length,10000,
Probe Attenuation,10,10
Vertical Units,V,V
Vertical Offset,0,0
Vertical Scale,1,1
Label,,
TIME,CH1,CH2
-5.0000e-04,0.28,-0.32
-4.9990e-04,0.28,-0.32
-4.9980e-04,0.2,-0.36
-4.9970e-04,0.32,-0.36
-4.9960e-04,0.32,-0.32
-4.9950e-04,0.28,-0.36
-4.9940e-04,0.32,-0.36
-4.9930e-04,0.28,-0.32
-4.9920e-04,0.32,-0.36
-4.9910e-04,0.24,-0.36
-4.9900e-04,0.2,-0.36
-4.9890e-04,0.24,-0.4
-4.9880e-04,0.24,-0.36
-4.9870e-04,0.2,-0.4
-4.9860e-04,0.12,-0.4
-4.9850e-04,0.24,-0.4
-4.9840e-04,0.24,-0.44
-4.9830e-04,0.16,-0.4
-4.9820e-04,0.12,-0.44
-4.9810e-04,0.08,-0.4
-4.9800e-04,0.16,-0.4
-4.9790e-04,0.24,-0.44
-4.9780e-04,0.24,-0.44
-4.9770e-04,0.16,-0.48
-4.9760e-04,0.12,-0.44
-4.9750e-04,0.12,-0.44
-4.9740e-04,0.04,-0.48
-4.9730e-04,0.08,-0.48
-4.9720e-04,0.04,-0.4
-4.9710e-04,0.04,-0.52
-4.9700e-04,0.2,-0.48
-4.9690e-04,0.04,-0.52
-4.9680e-04,0.12,-0.52
-4.9670e-04,0.08,-0.52
-4.9660e-04,0.08,-0.52
-4.9650e-04,0.08,-0.52
-4.9640e-04,0.08,-0.52
-4.9630e-04,0.04,-0.56
-4.9620e-04,0.08,-0.52
-4.9610e-04,0.04,-0.52
-4.9600e-04,0.04,-0.56
-4.9590e-04,0,-0.56
-4.9580e-04,0.04,-0.52
-4.9570e-04,0,-0.56
-4.9560e-04,0.04,-0.56
-4.9550e-04,-0.04,-0.52
-4.9540e-04,-0.04,-0.52
-4.9530e-04,-0.16,-0.6
-4.9520e-04,-0.04,-0.6
-4.9510e-04,0.04,-0.56
-4.9500e-04,-0.04,-0.6
-4.9490e-04,-0.08,-0.56
-4.9480e-04,-0.12,-0.6
-4.9470e-04,-0.16,-0.64
-4.9460e-04,-0.08,-0.64
-4.9450e-04,-0.16,-0.6
-4.9440e-04,-0.16,-0.6
-4.9430e-04,-0.08,-0.6
-4.9420e-04,-0.08,-0.64
-4.9410e-04,-0.08,-0.64
-4.9400e-04,-0.16,-0.64
-4.9390e-04,-0.16,-0.6
-4.9380e-04,-0.24,-0.64
-4.9370e-04,-0.12,-0.64
-4.9360e-04,-0.24,-0.64
-4.9350e-04,-0.24,-0.68
-4.9340e-04,-0.2,-0.64
-4.9330e-04,-0.24,-0.64
-4.9320e-04,-0.16,-0.72
-4.9310e-04,-0.2,-0.68
-4.9300e-04,-0.16,-0.68
-4.9290e-04,-0.16,-0.72
-4.9280e-04,-0.2,-0.72
-4.9270e-04,-0.2,-0.68
-4.9260e-04,-0.24,-0.72
-4.9250e-04,-0.24,-0.72
-4.9240e-04,-0.32,-0.76
-4.9230e-04,-0.24,-0.72
-4.9220e-04,-0.24,-0.64
-4.9210e-04,-0.28,-0.68
-4.9200e-04,-0.28,-0.72
-4.9190e-04,-0.24,-0.72
-4.9180e-04,-0.28,-0.68
-4.9170e-04,-0.2,-0.76
-4.9160e-04,-0.36,-0.72
-4.9150e-04,-0.44,-0.8
-4.9140e-04,-0.24,-0.76
-4.9130e-04,-0.36,-0.76
-4.9120e-04,-0.36,-0.72
-4.9110e-04,-0.28,-0.72
-4.9100e-04,-0.32,-0.8
-4.9090e-04,-0.4,-0.8
-4.9080e-04,-0.4,-0.76
-4.9070e-04,-0.32,-0.76
-4.9060e-04,-0.4,-0.76
-4.9050e-04,-0.48,-0.76
-4.9040e-04,-0.28,-0.8
-4.9030e-04,-0.44,-0.8
-4.9020e-04,-0.4,-0.8
-4.9010e-04,-0.4,-0.76
-4.9000e-04,-0.44,-0.8
-4.8990e-04,-0.44,-0.84
-4.8980e-04,-0.44,-0.8
-4.8970e-04,-0.52,-0.84
-4.8960e-04,-0.44,-0.84
-4.8950e-04,-0.52,-0.84
-4.8940e-04,-0.52,-0.8
-4.8930e-04,-0.48,-0.84
-4.8920e-04,-0.6,-0.84
-4.8910e-04,-0.56,-0.84
-4.8900e-04,-0.56,-0.8
-4.8890e-04,-0.48,-0.84
-4.8880e-04,-0.52,-0.84
-4.8870e-04,-0.56,-0.84
-4.8860e-04,-0.52,-0.88
-4.8850e-04,-0.48,-0.92
-4.8840e-04,-0.52,-0.88
-4.8830e-04,-0.44,-0.88
-4.8820e-04,-0.6,-0.84
-4.8810e-04,-0.64,-0.88
-4.8800e-04,-0.56,-0.88
-4.8790e-04,-0.56,-0.88
-4.8780e-04,-0.68,-0.88
-4.8770e-04,-0.6,-0.88
-4.8760e-04,-0.68,-0.96
-4.8750e-04,-0.6,-0.88
-4.8740e-04,-0.6,-0.88
-4.8730e-04,-0.6,-0.96
-4.8720e-04,-0.76,-0.92
-4.8710e-04,-0.6,-0.88
-4.8700e-04,-0.6,-0.92
-4.8690e-04,-0.68,-0.96
-4.8680e-04,-0.68,-0.96
-4.8670e-04,-0.64,-0.96
-4.8660e-04,-0.64,-0.96
-4.8650e-04,-0.72,-0.96
-4.8640e-04,-0.68,-0.96
-4.8630e-04,-0.56,-0.92
-4.8620e-04,-0.68,-0.96
-4.8610e-04,-0.68,-0.96
-4.8600e-04,-0.68,-0.92
-4.8590e-04,-0.76,-0.96
-4.8580e-04,-0.76,-0.96
-4.8570e-04,-0.8,-0.96
-4.8560e-04,-0.72,-0.92
-4.8550e-04,-0.76,-0.96
-4.8540e-04,-0.8,-0.96
-4.8530e-04,-0.64,-0.96
-4.8520e-04,-0.76,-0.96
-4.8510e-04,-0.88,-0.96
-4.8500e-04,-0.8,-0.96
-4.8490e-04,-0.8,-1
-4.8480e-04,-0.76,-1
-4.8470e-04,-0.84,-1
-4.8460e-04,-0.8,-0.96
-4.8450e-04,-0.8,-1
-4.8440e-04,-0.84,-1
-4.8430e-04,-0.8,-1
-4.8420e-04,-0.8,-1.04
-4.8410e-04,-0.76,-0.96
-4.8400e-04,-0.88,-1
-4.8390e-04,-0.88,-0.96
-4.8380e-04,-0.92,-0.96
-4.8370e-04,-0.88,-1.04
-4.8360e-04,-0.88,-1.04
-4.8350e-04,-0.96,-1
-4.8340e-04,-0.84,-1
-4.8330e-04,-0.92,-1.04
-4.8320e-04,-0.96,-1
-4.8310e-04,-0.96,-1.04
-4.8300e-04,-0.96,-1
-4.8290e-04,-0.84,-1
-4.8280e-04,-0.92,-1.04
-4.8270e-04,-0.96,-1.04
-4.8260e-04,-0.88,-1.08
-4.8250e-04,-0.96,-1.08
-4.8240e-04,-0.92,-1.04
-4.8230e-04,-0.96,-1.04
-4.8220e-04,-0.88,-1.08
-4.8210e-04,-1,-1.08
-4.8200e-04,-1,-1.08
-4.8190e-04,-0.96,-1.08
-4.8180e-04,-0.92,-1
-4.8170e-04,-0.88,-1.04
-4.8160e-04,-1,-1.04
-4.8150e-04,-0.88,-1.04
-4.8140e-04,-0.92,-1.04
-4.8130e-04,-1.04,-1.04
-4.8120e-04,-0.96,-1.04
-4.8110e-04,-1,-1.04
-4.8100e-04,-1.04,-1.08
-4.8090e-04,-1.08,-1.04
-4.8080e-04,-0.92,-1.04
-4.8070e-04,-1,-1.04
-4.8060e-04,-1.04,-1
-4.8050e-04,-1.04,-1.04
-4.8040e-04,-1.12,-1.08
-4.8030e-04,-1.12,-1.04
-4.8020e-04,-1.12,-1.04
-4.8010e-04,-1.08,-1.08
-4.8000e-04,-1.12,-1.04
-4.7990e-04,-1.12,-1.08
-4.7980e-04,-1.12,-1.12
-4.7970e-04,-1.12,-1.08
-4.7960e-04,-1.08,-1.08
-4.7950e-04,-1.12,-1.04
-4.7940e-04,-1.04,-1.12
-4.7930e-04,-1.16,-1.08
-4.7920e-04,-1.12,-1.08
-4.7910e-04,-1.12,-1.04
-4.7900e-04,-1.16,-1.08
-4.7890e-04,-1.16,-1.08
-4.7880e-04,-1.24,-1.04
-4.7870e-04,-1.16,-1.08
-4.7860e-04,-1.2,-1.08
-4.7850e-04,-1.12,-1.04
-4.7840e-04,-1.08,-1.08
-4.7830e-04,-1.16,-1.08
-4.7820e-04,-1.2,-1.08
-4.7810e-04,-1.16,-1.04
-4.7800e-04,-1.2,-1.12
-4.7790e-04,-1.2,-1.08
-4.7780e-04,-1.2,-1.08
-4.7770e-04,-1.2,-1.08
-4.7760e-04,-1.12,-1.08
-4.7750e-04,-1.12,-1.04
-4.7740e-04,-1.16,-1.08
-4.7730e-04,-1.32,-1.08
-4.7720e-04,-1.2,-1.08
-4.7710e-04,-1.32,-1.08
-4.7700e-04,-1.16,-1.04
-4.7690e-04,-1.12,-1.08
-4.7680e-04,-1.28,-1.08
-4.7670e-04,-1.28,-1.08
-4.7660e-04,-1.28,-1.12
-4.7650e-04,-1.24,-1.08
-4.7640e-04,-1.16,-1.04
-4.7630e-04,-1.24,-1.12
-4.7620e-04,-1.28,-1.04
-4.7610e-04,-1.32,-1.04
-4.7600e-04,-1.24,-1.12
-4.7590e-04,-1.28,-1.12
-4.7580e-04,-1.28,-1.08
-4.7570e-04,-1.28,-1.08
-4.7560e-04,-1.2,-1.08
-4.7550e-04,-1.28,-1.04
-4.7540e-04,-1.24,-1.12
-4.7530e-04,-1.24,-1.08
-4.7520e-04,-1.24,-1.08
-4.7510e-04,-1.24,-1.04
-4.7500e-04,-1.32,-1.08
-4.7490e-04,-1.32,-1.04
-4.7480e-04,-1.24,-1.04
-4.7470e-04,-1.24,-1.16
-4.7460e-04,-1.28,-1.04
-4.7450e-04,-1.24,-1.08
-4.7440e-04,-1.32,-1.08
-4.7430e-04,-1.32,-1
-4.7420e-04,-1.4,-1.04
-4.7410e-04,-1.24,-1.08
-4.7400e-04,-1.24,-1.04
-4.7390e-04,-1.36,-1.04
-4.7380e-04,-1.28,-1.04
-4.7370e-04,-1.36,-1.08
-4.7360e-04,-1.28,-1.08
-4.7350e-04,-1.28,-1.04
-4.7340e-04,-1.2,-1.04
-4.7330e-04,-1.24,-1.04
-4.7320e-04,-1.32,-1.08
-4.7310e-04,-1.44,-1.08
-4.7300e-04,-1.32,-1.04
-4.7290e-04,-1.24,-1.04
-4.7280e-04,-1.32,-1.08
-4.7270e-04,-1.32,-1.08
-4.7260e-04,-1.4,-1.04
-4.7250e-04,-1.32,-1.04
-4.7240e-04,-1.28,-1
-4.7230e-04,-1.24,-1.04
-4.7220e-04,-1.36,-1.08
-4.7210e-04,-1.24,-1.08
-4.7200e-04,-1.36,-1.04
-4.7190e-04,-1.4,-1
-4.7180e-04,-1.32,-1.04
-4.7170e-04,-1.28,-1.04
-4.7160e-04,-1.44,-1.04
-4.7150e-04,-1.36,-1.04
-4.7140e-04,-1.32,-1.04
-4.7130e-04,-1.44,-1.04
-4.7120e-04,-1.36,-1
-4.7110e-04,-1.32,-1.04
-4.7100e-04,-1.4,-0.96
-4.7090e-04,-1.4,-1.04
-4.7080e-04,-1.4,-1.08
-4.7070e-04,-1.4,-1
-4.7060e-04,-1.36,-1
-4.7050e-04,-1.4,-1
-4.7040e-04,-1.36,-1.04
-4.7030e-04,-1.36,-1
-4.7020e-04,-1.36,-1
-4.7010e-04,-1.4,-0.96
-4.7000e-04,-1.36,-1.04
-4.6990e-04,-1.4,-1
-4.6980e-04,-1.32,-1.04
-4.6970e-04,-1.48,-0.96
-4.6960e-04,-1.44,-1
-4.6950e-04,-1.36,-0.96
-4.6940e-04,-1.44,-0.96
-4.6930e-04,-1.36,-0.96
-4.6920e-04,-1.44,-0.96
-4.6910e-04,-1.4,-0.96
-4.6900e-04,-1.36,-0.96
-4.6890e-04,-1.48,-1
-4.6880e-04,-1.36,-0.96
-4.6870e-04,-1.44,-0.96
-4.6860e-04,-1.36,-0.96
-4.6850e-04,-1.4,-0.96
-4.6840e-04,-1.44,-0.96
-4.6830e-04,-1.44,-0.96
-4.6820e-04,-1.32,-0.96
-4.6810e-04,-1.4,-0.92
-4.6800e-04,-1.44,-0.96
-4.6790e-04,-1.32,-0.96
-4.6780e-04,-1.4,-0.96
-4.6770e-04,-1.4,-0.96
-4.6760e-04,-1.48,-0.96
-4.6750e-04,-1.4,-0.96
-4.6740e-04,-1.44,-0.96
-4.6730e-04,-1.36,-0.92
-4.6720e-04,-1.4,-0.96
-4.6710e-04,-1.48,-0.92
-4.6700e-04,-1.4,-0.92
-4.6690e-04,-1.48,-0.92
-4.6680e-04,-1.48,-0.88
-4.6670e-04,-1.44,-0.92
-4.6660e-04,-1.36,-0.92
-4.6650e-04,-1.44,-0.96
-4.6640e-04,-1.4,-0.88
-4.6630e-04,-1.4,-0.96
-4.6620e-04,-1.36,-0.88
-4.6610e-04,-1.32,-0.92
-4.6600e-04,-1.44,-0.92
-4.6590e-04,-1.32,-0.88
-4.6580e-04,-1.48,-0.88
-4.6570e-04,-1.44,-0.92
-4.6560e-04,-1.4,-0.84
-4.6550e-04,-1.4,-0.88
-4.6540e-04,-1.36,-0.88
-4.6530e-04,-1.36,-0.92
-4.6520e-04,-1.36,-0.92
-4.6510e-04,-1.36,-0.88
-4.6500e-04,-1.44,-0.88
-4.6490e-04,-1.36,-0.84
-4.6480e-04,-1.4,-0.92
-4.6470e-04,-1.36,-0.84
-4.6460e-04,-1.4,-0.84
-4.6450e-04,-1.44,-0.8
-4.6440e-04,-1.44,-0.84
-4.6430e-04,-1.36,-0.84
-4.6420e-04,-1.44,-0.84
-4.6410e-04,-1.36,-0.84
-4.6400e-04,-1.32,-0.8
-4.6390e-04,-1.4,-0.84
-4.6380e-04,-1.36,-0.8
-4.6370e-04,-1.44,-0.84
-4.6360e-04,-1.32,-0.84
-4.6350e-04,-1.44,-0.8
-4.6340e-04,-1.28,-0.8
-4.6330e-04,-1.28,-0.8
-4.6320e-04,-1.4,-0.8
-4.6310e-04,-1.4,-0.8
-4.6300e-04,-1.36,-0.8
-4.6290e-04,-1.4,-0.8
-4.6280e-04,-1.4,-0.76
-4.6270e-04,-1.36,-0.8
-4.6260e-04,-1.44,-0.8
-4.6250e-04,-1.36,-0.76
-4.6240e-04,-1.28,-0.76
-4.6230e-04,-1.28,-0.8
-4.6220e-04,-1.36,-0.8
-4.6210e-04,-1.4,-0.76
-4.6200e-04,-1.44,-0.76
-4.6190e-04,-1.36,-0.72
-4.6180e-04,-1.36,-0.76
-4.6170e-04,-1.36,-0.72
-4.6160e-04,-1.4,-0.72
-4.6150e-04,-1.32,-0.76
-4.6140e-04,-1.36,-0.72
-4.6130e-04,-1.36,-0.72
-4.6120e-04,-1.32,-0.76
-4.6110e-04,-1.32,-0.76
-4.6100e-04,-1.28,-0.72
-4.6090e-04,-1.28,-0.68
-4.6080e-04,-1.32,-0.68
-4.6070e-04,-1.4,-0.72
-4.6060e-04,-1.32,-0.68
-4.6050e-04,-1.44,-0.72
-4.6040e-04,-1.4,-0.68
-4.6030e-04,-1.32,-0.68
-4.6020e-04,-1.36,-0.72
-4.6010e-04,-1.32,-0.72
-4.6000e-04,-1.4,-0.72
-4.5990e-04,-1.4,-0.64
-4.5980e-04,-1.36,-0.64
-4.5970e-04,-1.28,-0.72
-4.5960e-04,-1.24,-0.64
-4.5950e-04,-1.36,-0.64
-4.5940e-04,-1.24,-0.64
-4.5930e-04,-1.36,-0.64
-4.5920e-04,-1.4,-0.68
-4.5910e-04,-1.32,-0.64
-4.5900e-04,-1.36,-0.64
-4.5890e-04,-1.32,-0.68
-4.5880e-04,-1.36,-0.64
-4.5870e-04,-1.24,-0.64
-4.5860e-04,-1.32,-0.64
-4.5850e-04,-1.24,-0.6
-4.5840e-04,-1.28,-0.64
-4.5830e-04,-1.32,-0.64
-4.5820e-04,-1.24,-0.64
-4.5810e-04,-1.32,-0.64
-4.5800e-04,-1.32,-0.64
-4.5790e-04,-1.24,-0.64
-4.5780e-04,-1.2,-0.6
-4.5770e-04,-1.28,-0.64
-4.5760e-04,-1.4,-0.6
-4.5750e-04,-1.32,-0.52
-4.5740e-04,-1.28,-0.6
-4.5730e-04,-1.24,-0.6
-4.5720e-04,-1.24,-0.6
-4.5710e-04,-1.24,-0.56
-4.5700e-04,-1.32,-0.6
-4.5690e-04,-1.32,-0.56
-4.5680e-04,-1.24,-0.6
-4.5670e-04,-1.32,-0.6
-4.5660e-04,-1.32,-0.52
-4.5650e-04,-1.32,-0.56
-4.5640e-04,-1.2,-0.56
-4.5630e-04,-1.32,-0.56
-4.5620e-04,-1.24,-0.6
-4.5610e-04,-1.28,-0.52
-4.5600e-04,-1.24,-0.56
-4.5590e-04,-1.24,-0.56
-4.5580e-04,-1.24,-0.52
-4.5570e-04,-1.28,-0.56
-4.5560e-04,-1.2,-0.52
-4.5550e-04,-1.28,-0.52
-4.5540e-04,-1.2,-0.52
-4.5530e-04,-1.28,-0.52
-4.5520e-04,-1.24,-0.48
-4.5510e-04,-1.24,-0.52
-4.5500e-04,-1.2,-0.52
-4.5490e-04,-1.2,-0.48
-4.5480e-04,-1.24,-0.48
-4.5470e-04,-1.24,-0.52
-4.5460e-04,-1.2,-0.48
-4.5450e-04,-1.24,-0.48
-4.5440e-04,-1.2,-0.48
-4.5430e-04,-1.36,-0.52
-4.5420e-04,-1.2,-0.48
-4.5410e-04,-1.24,-0.48
-4.5400e-04,-1.24,-0.44
-4.5390e-04,-1.2,-0.44
-4.5380e-04,-1.2,-0.44
-4.5370e-04,-1.2,-0.48
-4.5360e-04,-1.2,-0.44
-4.5350e-04,-1.16,-0.48
-4.5340e-04,-1.04,-0.44
-4.5330e-04,-1.2,-0.4
-4.5320e-04,-1.24,-0.44
-4.5310e-04,-1.12,-0.44
-4.5300e-04,-1.2,-0.4
-4.5290e-04,-1.28,-0.44
-4.5280e-04,-1.24,-0.44
-4.5270e-04,-1.2,-0.4
-4.5260e-04,-1.2,-0.4
-4.5250e-04,-1.24,-0.4
-4.5240e-04,-1.2,-0.4
-4.5230e-04,-1.12,-0.4
-4.5220e-04,-1.16,-0.4
-4.5210e-04,-1.2,-0.4
-4.5200e-04,-1.08,-0.4
-4.5190e-04,-1.16,-0.4
-4.5180e-04,-1.2,-0.4
-4.5170e-04,-1.16,-0.36
-4.5160e-04,-1.16,-0.4
-4.5150e-04,-1.08,-0.36
-4.5140e-04,-1.16,-0.4
-4.5130e-04,-1.12,-0.36
-4.5120e-04,-1.16,-0.32
-4.5110e-04,-1.16,-0.32
-4.5100e-04,-1.08,-0.36
-4.5090e-04,-1.2,-0.36
-4.5080e-04,-1.08,-0.32
-4.5070e-04,-1.16,-0.32
-4.5060e-04,-1.16,-0.36
-4.5050e-04,-1.16,-0.32
-4.5040e-04,-1.12,-0.32
-4.5030e-04,-1.12,-0.32
-4.5020e-04,-1,-0.32
-4.5010e-04,-1.04,-0.32
-4.5000e-04,-1.08,-0.32
-4.4990e-04,-1.12,-0.32
-4.4980e-04,-1.12,-0.32
-4.4970e-04,-0.96,-0.32
-4.4960e-04,-1.08,-0.32
-4.4950e-04,-1.04,-0.24
-4.4940e-04,-1,-0.32
-4.4930e-04,-1.12,-0.28
-4.4920e-04,-1.12,-0.28
-4.4910e-04,-1.08,-0.28
-4.4900e-04,-1.04,-0.28
-4.4890e-04,-1.08,-0.2
-4.4880e-04,-1.04,-0.24
-4.4870e-04,-1.08,-0.24
-4.4860e-04,-0.92,-0.24
-4.4850e-04,-1.08,-0.24
-4.4840e-04,-1.04,-0.24
-4.4830e-04,-1.08,-0.2
-4.4820e-04,-1,-0.24
-4.4810e-04,-1,-0.24
-4.4800e-04,-1,-0.2
-4.4790e-04,-1,-0.2
-4.4780e-04,-0.96,-0.24
-4.4770e-04,-1.04,-0.2
-4.4760e-04,-1.12,-0.24
-4.4750e-04,-1.04,-0.24
-4.4740e-04,-1.08,-0.24
-4.4730e-04,-1,-0.2
-4.4720e-04,-1.04,-0.2
-4.4710e-04,-1,-0.2
-4.4700e-04,-1.08,-0.2
-4.4690e-04,-0.92,-0.2
-4.4680e-04,-1.04,-0.16
-4.4670e-04,-0.96,-0.16
-4.4660e-04,-0.96,-0.16
-4.4650e-04,-1,-0.16
-4.4640e-04,-1,-0.2
-4.4630e-04,-0.96,-0.16
-4.4620e-04,-0.92,-0.16
-4.4610e-04,-1,-0.2
-4.4600e-04,-1,-0.2
-4.4590e-04,-1,-0.16
-4.4580e-04,-0.96,-0.2
-4.4570e-04,-0.96,-0.16
-4.4560e-04,-1,-0.16
-4.4550e-04,-0.88,-0.12
-4.4540e-04,-0.96,-0.12
-4.4530e-04,-0.88,-0.16
-4.4520e-04,-1,-0.16
-4.4510e-04,-0.92,-0.12
-4.4500e-04,-0.96,-0.12
-4.4490e-04,-0.96,-0.12
-4.4480e-04,-1,-0.12
-4.4470e-04,-0.96,-0.12
-4.4460e-04,-1,-0.04
-4.4450e-04,-0.88,-0.12
-4.4440e-04,-0.88,-0.12
-4.4430e-04,-0.84,-0.12
-4.4420e-04,-0.88,-0.12
-4.4410e-04,-0.88,-0.08
-4.4400e-04,-0.92,-0.12
-4.4390e-04,-1,-0.04
-4.4380e-04,-0.88,-0.04
-4.4370e-04,-0.88,-0.12
-4.4360e-04,-0.84,-0.04
-4.4350e-04,-0.8,-0.04
-4.4340e-04,-0.84,-0.08
-4.4330e-04,-0.8,-0.04
-4.4320e-04,-0.88,-0.04
-4.4310e-04,-0.92,-0.04
-4.4300e-04,-0.76,0
-4.4290e-04,-0.92,-0.04
-4.4280e-04,-0.88,-0.04
-4.4270e-04,-0.92,0
-4.4260e-04,-0.84,-0.04
-4.4250e-04,-0.8,0
-4.4240e-04,-0.8,-0.04
-4.4230e-04,-0.76,0
-4.4220e-04,-0.8,0
-4.4210e-04,-0.76,-0.04
-4.4200e-04,-0.8,0.04
-4.4190e-04,-0.84,0.04
-4.4180e-04,-0.84,0
-4.4170e-04,-0.84,0
-4.4160e-04,-0.72,0
-4.4150e-04,-0.8,0
-4.4140e-04,-0.8,0.08
-4.4130e-04,-0.76,0
-4.4120e-04,-0.84,0.04
-4.4110e-04,-0.72,0.04
-4.4100e-04,-0.84,0
-4.4090e-04,-0.72,0
-4.4080e-04,-0.76,0.04
-4.4070e-04,-0.8,0
-4.4060e-04,-0.8,0.08
-4.4050e-04,-0.76,0.04
-4.4040e-04,-0.8,0.08
-4.4030e-04,-0.72,0.12
-4.4020e-04,-0.76,0.08
-4.4010e-04,-0.72,0.12
-4.4000e-04,-0.72,0.08
-4.3990e-04,-0.68,0.04
-4.3980e-04,-0.72,0.12
-4.3970e-04,-0.64,0.12
-4.3960e-04,-0.76,0.12
-4.3950e-04,-0.64,0.12
-4.3940e-04,-0.68,0.12
-4.3930e-04,-0.72,0.12
-4.3920e-04,-0.72,0.12
-4.3910e-04,-0.68,0.12
-4.3900e-04,-0.72,0.08
-4.3890e-04,-0.6,0.16
-4.3880e-04,-0.6,0.16
-4.3870e-04,-0.72,0.12
-4.3860e-04,-0.72,0.16
-4.3850e-04,-0.6,0.08
-4.3840e-04,-0.64,0.12
-4.3830e-04,-0.68,0.16
-4.3820e-04,-0.6,0.12
-4.3810e-04,-0.68,0.16
-4.3800e-04,-0.64,0.2
-4.3790e-04,-0.64,0.16
-4.3780e-04,-0.64,0.16
-4.3770e-04,-0.64,0.2
-4.3760e-04,-0.64,0.2
-4.3750e-04,-0.56,0.2
-4.3740e-04,-0.6,0.2
-4.3730e-04,-0.6,0.2
-4.3720e-04,-0.64,0.16
-4.3710e-04,-0.6,0.16
-4.3700e-04,-0.6,0.16
-4.3690e-04,-0.6,0.2
-4.3680e-04,-0.64,0.2
-4.3670e-04,-0.6,0.16
-4.3660e-04,-0.64,0.24
-4.3650e-04,-0.6,0.16
-4.3640e-04,-0.56,0.24
-4.3630e-04,-0.56,0.24
-4.3620e-04,-0.64,0.24
-4.3610e-04,-0.56,0.24
-4.3600e-04,-0.6,0.2
-4.3590e-04,-0.6,0.16
-4.3580e-04,-0.56,0.24
-4.3570e-04,-0.52,0.2
-4.3560e-04,-0.6,0.24
-4.3550e-04,-0.52,0.24
-4.3540e-04,-0.52,0.24
-4.3530e-04,-0.56,0.2
-4.3520e-04,-0.48,0.24
-4.3510e-04,-0.6,0.28
-4.3500e-04,-0.6,0.24
-4.3490e-04,-0.52,0.28
-4.3480e-04,-0.44,0.28
-4.3470e-04,-0.52,0.24
-4.3460e-04,-0.52,0.28
-4.3450e-04,-0.56,0.28
-4.3440e-04,-0.44,0.32
-4.3430e-04,-0.52,0.24
-4.3420e-04,-0.52,0.28
-4.3410e-04,-0.4,0.28
-4.3400e-04,-0.4,0.28
-4.3390e-04,-0.44,0.32
-4.3380e-04,-0.36,0.32
-4.3370e-04,-0.44,0.32
-4.3360e-04,-0.44,0.32
-4.3350e-04,-0.4,0.32
-4.3340e-04,-0.4,0.28
-4.3330e-04,-0.44,0.32
-4.3320e-04,-0.4,0.32
-4.3310e-04,-0.32,0.32
-4.3300e-04,-0.4,0.32
-4.3290e-04,-0.36,0.32
-4.3280e-04,-0.4,0.32
-4.3270e-04,-0.4,0.36
-4.3260e-04,-0.36,0.32
-4.3250e-04,-0.4,0.32
-4.3240e-04,-0.32,0.32
-4.3230e-04,-0.36,0.36
-4.3220e-04,-0.36,0.4
-4.3210e-04,-0.28,0.36
-4.3200e-04,-0.36,0.4
-4.3190e-04,-0.32,0.36
-4.3180e-04,-0.36,0.44
-4.3170e-04,-0.36,0.44
-4.3160e-04,-0.36,0.4
-4.3150e-04,-0.32,0.44
-4.3140e-04,-0.32,0.4
-4.3130e-04,-0.36,0.36
-4.3120e-04,-0.24,0.44
-4.3110e-04,-0.32,0.36
-4.3100e-04,-0.32,0.44
-4.3090e-04,-0.24,0.4
-4.3080e-04,-0.28,0.44
-4.3070e-04,-0.32,0.4
-4.3060e-04,-0.32,0.44
-4.3050e-04,-0.16,0.44
-4.3040e-04,-0.32,0.44
-4.3030e-04,-0.2,0.48
-4.3020e-04,-0.32,0.44
-4.3010e-04,-0.24,0.44
-4.3000e-04,-0.36,0.48
-4.2990e-04,-0.32,0.44
-4.2980e-04,-0.24,0.44
-4.2970e-04,-0.28,0.48
-4.2960e-04,-0.24,0.44
-4.2950e-04,-0.2,0.44
-4.2940e-04,-0.24,0.44
-4.2930e-04,-0.24,0.44
-4.2920e-04,-0.24,0.48
-4.2910e-04,-0.2,0.48
-4.2900e-04,-0.32,0.44
-4.2890e-04,-0.24,0.48
-4.2880e-04,-0.2,0.44
-4.2870e-04,-0.2,0.48
-4.2860e-04,-0.28,0.48
-4.2850e-04,-0.12,0.52
-4.2840e-04,-0.24,0.44
-4.2830e-04,-0.16,0.48
-4.2820e-04,-0.2,0.48
-4.2810e-04,-0.2,0.52
-4.2800e-04,-0.16,0.52
-4.2790e-04,-0.2,0.52
-4.2780e-04,-0.16,0.52
-4.2770e-04,-0.16,0.52
-4.2760e-04,-0.28,0.52
-4.2750e-04,-0.16,0.48
-4.2740e-04,-0.16,0.56
-4.2730e-04,-0.08,0.52
-4.2720e-04,-0.12,0.52
-4.2710e-04,-0.12,0.56
-4.2700e-04,-0.16,0.52
-4.2690e-04,-0.08,0.56
-4.2680e-04,-0.08,0.6
-4.2670e-04,-0.08,0.56
-4.2660e-04,0,0.56
-4.2650e-04,-0.08,0.52
-4.2640e-04,0,0.52
-4.2630e-04,-0.08,0.56
-4.2620e-04,-0.08,0.56
-4.2610e-04,-0.12,0.52
-4.2600e-04,-0.08,0.52
-4.2590e-04,-0.16,0.56
-4.2580e-04,0,0.6
-4.2570e-04,-0.08,0.56
-4.2560e-04,-0.08,0.56
-4.2550e-04,-0.08,0.64
-4.2540e-04,0,0.56
-4.2530e-04,-0.12,0.6
-4.2520e-04,-0.12,0.64
-4.2510e-04,0.04,0.56
-4.2500e-04,-0.04,0.64
-4.2490e-04,0,0.6
-4.2480e-04,0,0.6
-4.2470e-04,0.04,0.56
-4.2460e-04,0.12,0.64
-4.2450e-04,0.04,0.6
-4.2440e-04,0,0.6
-4.2430e-04,0.04,0.64
-4.2420e-04,0.08,0.64
-4.2410e-04,0.04,0.64
-4.2400e-04,0.04,0.64
-4.2390e-04,0.04,0.6
-4.2380e-04,0.04,0.64
-4.2370e-04,0.08,0.64
-4.2360e-04,0.08,0.64
-4.2350e-04,0.08,0.64
-4.2340e-04,0.08,0.64
-4.2330e-04,0.04,0.6
-4.2320e-04,0.08,0.64
-4.2310e-04,0.08,0.64
-4.2300e-04,0.04,0.64
-4.2290e-04,0.08,0.64
-4.2280e-04,0.04,0.68
-4.2270e-04,0.08,0.68
-4.2260e-04,0.08,0.68
-4.2250e-04,0.16,0.64
-4.2240e-04,0.12,0.64
-4.2230e-04,0.12,0.64
-4.2220e-04,0.2,0.72
-4.2210e-04,0.12,0.64
-4.2200e-04,0.2,0.68
-4.2190e-04,0.08,0.68
-4.2180e-04,0.16,0.68
-4.2170e-04,0.12,0.68
-4.2160e-04,0.08,0.68
-4.2150e-04,0.12,0.64
-4.2140e-04,0.12,0.68
-4.2130e-04,0.12,0.76
-4.2120e-04,0.28,0.72
-4.2110e-04,0.2,0.76
-4.2100e-04,0.24,0.68
-4.2090e-04,0.16,0.72
-4.2080e-04,0.2,0.72
-4.2070e-04,0.12,0.64
-4.2060e-04,0.12,0.72
-4.2050e-04,0.12,0.76
-4.2040e-04,0.16,0.68
-4.2030e-04,0.16,0.72
-4.2020e-04,0.24,0.68
-4.2010e-04,0.2,0.72
-4.2000e-04,0.2,0.72
-4.1990e-04,0.24,0.68
-4.1980e-04,0.16,0.76
-4.1970e-04,0.24,0.76
-4.1960e-04,0.28,0.76
-4.1950e-04,0.2,0.76
-4.1940e-04,0.2,0.76
-4.1930e-04,0.24,0.72
-4.1920e-04,0.28,0.76
-4.1910e-04,0.28,0.76
-4.1900e-04,0.24,0.76
-4.1890e-04,0.28,0.76
-4.1880e-04,0.32,0.76
-4.1870e-04,0.32,0.76
-4.1860e-04,0.36,0.76
-4.1850e-04,0.32,0.76
-4.1840e-04,0.32,0.84
-4.1830e-04,0.32,0.76
-4.1820e-04,0.36,0.76
-4.1810e-04,0.32,0.76
-4.1800e-04,0.36,0.76
-4.1790e-04,0.32,0.8
-4.1780e-04,0.32,0.76
-4.1770e-04,0.36,0.76
-4.1760e-04,0.36,0.8
-4.1750e-04,0.36,0.76
-4.1740e-04,0.44,0.76
-4.1730e-04,0.32,0.8
-4.1720e-04,0.44,0.8
-4.1710e-04,0.44,0.84
-4.1700e-04,0.4,0.76
-4.1690e-04,0.44,0.84
-4.1680e-04,0.4,0.8
-4.1670e-04,0.36,0.8
-4.1660e-04,0.4,0.8
-4.1650e-04,0.48,0.8
-4.1640e-04,0.4,0.8
-4.1630e-04,0.36,0.8
-4.1620e-04,0.48,0.88
-4.1610e-04,0.44,0.76
-4.1600e-04,0.44,0.84
-4.1590e-04,0.44,0.84
-4.1580e-04,0.4,0.8
-4.1570e-04,0.4,0.76
-4.1560e-04,0.4,0.84
-4.1550e-04,0.48,0.8
-4.1540e-04,0.52,0.8
-4.1530e-04,0.48,0.84
-4.1520e-04,0.48,0.84
-4.1510e-04,0.48,0.84
-4.1500e-04,0.44,0.8
-4.1490e-04,0.48,0.88
-4.1480e-04,0.56,0.88
-4.1470e-04,0.52,0.84
-4.1460e-04,0.48,0.92
-4.1450e-04,0.44,0.84
-4.1440e-04,0.48,0.88
-4.1430e-04,0.56,0.88
-4.1420e-04,0.56,0.84
-4.1410e-04,0.44,0.84
-4.1400e-04,0.52,0.84
-4.1390e-04,0.52,0.88
